# Blender MTL File: 'HoverBikeAttempt2 - ProgressMade.blend'
# Material Count: 4

newmtl DarkGrey
Ns 96.078431
Ka 0.000000 0.000000 0.000000
Kd 0.011736 0.011736 0.011736
Ks 0.957627 0.957627 0.957627
Ni 1.000000
d 1.000000
illum 2

newmtl Glass
Ns 96.078431
Ka 0.000000 0.000000 0.000000
Kd 0.150280 0.640000 0.603723
Ks 0.816667 0.816667 0.816667
Ni 1.000000
d 1.000000
illum 2

newmtl LightBlue
Ns 96.078431
Ka 0.000000 0.000000 0.000000
Kd 0.060305 0.485643 0.640000
Ks 0.500000 0.500000 0.500000
Ni 1.000000
d 1.000000
illum 2

newmtl Silver
Ns 96.078431
Ka 0.000000 0.000000 0.000000
Kd 0.800000 0.800000 0.800000
Ks 0.841204 0.841204 0.841204
Ni 1.000000
d 1.000000
illum 2
