# Blender v2.72 (sub 0) OBJ File: 'HoverBikeAttempt2 - ProgressMade.blend'
# www.blender.org
mtllib HoverBike2.mtl
o Plane
v 3.264327 19.112635 -95.257126
v 4.279352 27.388794 168.008926
v 2.022803 -45.647491 -70.255615
v 4.039118 -28.203461 -94.059853
v 4.765338 -42.342102 -70.255615
v 4.476815 -33.982815 -85.394356
v 1.851678 -36.160202 -85.394356
v 0.377648 1.008793 -128.563309
v 2.831232 -52.561958 -45.539581
v 4.883458 -49.795849 -53.522160
v 2.210687 -52.561954 -21.204290
v 6.174806 -46.278595 -21.204288
v 2.028798 -52.561954 65.515434
v 6.848530 -46.463146 65.515434
v 5.080624 -41.006378 76.349136
v 8.022341 -44.453308 72.619705
v 8.757692 -22.919289 92.018661
v 23.494858 -21.163227 -33.541630
v 5.232828 7.647099 140.474823
v 10.424331 9.203785 139.408890
v 5.232828 30.442226 140.474838
v 8.176855 -7.215199 105.522331
v 16.312386 -2.283368 104.456383
v 7.295333 32.208031 105.522331
v 2.089427 -52.561954 9.311819
v 7.282858 -46.481613 9.311820
v 2.028798 -52.561954 43.617386
v 7.005064 -46.412415 43.617386
v 0.419897 45.642624 -48.923409
v 25.567257 1.214225 -69.603477
v 27.179810 20.510681 -53.875854
v 33.007896 -2.715866 -64.457664
v 18.675289 -17.009529 87.374001
v 23.288280 9.800692 75.119987
v 21.801632 -6.251265 67.431160
v 23.958342 -8.660993 43.617386
v 25.208584 -8.630280 3.219820
v 6.437257 -34.883114 81.648888
v 14.936595 -40.398987 73.298256
v 14.511896 -40.364342 65.515434
v 14.476787 -39.995239 -21.204290
v 14.824966 -40.262867 43.617386
v 15.423546 -40.401268 9.311819
v 3.606889 -47.374218 73.298256
v 6.917117 18.354475 168.008926
v 14.549340 21.787870 104.456383
v 10.424331 25.592999 139.408890
v 4.279352 14.903847 168.008926
v 67.693329 26.760164 151.839920
v 43.200626 11.638439 92.320450
v 33.496437 -0.613320 78.412346
v 11.728171 17.009680 -92.909180
v 18.805737 -6.379238 -64.852676
v 22.213619 -5.218813 -46.427322
v 13.240139 -8.074657 -84.077789
v 14.484954 -16.404488 -68.939064
v 12.951638 -26.298578 -46.415283
v 7.548571 -26.474201 -85.394356
v 6.248145 -2.268919 -109.082993
v 1.128483 -10.295790 -115.787033
v 7.877306 -32.767048 -70.255615
v 6.043813 -43.845882 -45.539581
v 43.067509 4.339304 92.320450
v 19.152199 -19.518719 74.313477
v 64.039284 25.349289 123.635063
v 74.339684 32.196152 142.489212
v 84.445450 37.709297 164.617493
v 47.154552 12.175690 96.710327
v 62.974201 21.503483 135.452469
v 56.372669 16.264214 116.598328
v 69.411911 32.659439 159.742981
v 67.693336 33.678101 151.839905
v 62.974201 30.222733 135.452469
v 56.372669 24.274240 116.598343
v 27.611469 -1.304143 75.790581
v 23.653381 -6.920699 71.849083
v 25.750402 -8.603277 75.790581
v 25.757565 -2.864539 90.101852
v 32.072357 14.843857 124.935585
v 25.741304 5.145487 90.101852
v 34.550972 3.484274 82.599129
v 27.707674 -5.407832 74.552452
v 33.910503 -3.814861 82.599129
v 39.395031 5.014475 101.015587
v 39.395031 13.024502 101.015587
v 52.761116 4.349786 -64.697937
v 27.506628 10.336346 -48.607948
v 45.300804 1.000721 -70.556923
v 23.794914 -0.548588 -50.064419
v 40.341904 1.879906 -69.765747
v 44.775467 2.838603 -71.164146
v 28.181751 18.310299 -51.302841
v 23.003107 -33.275848 80.220711
v 21.775042 -35.970085 74.517570
v 23.279680 -32.523438 65.515434
v 25.225559 -29.649490 -21.204288
v 24.755739 -29.671246 43.617386
v 25.003614 -29.516333 9.311820
v 15.298123 -40.067513 76.349136
v 23.984535 -19.978870 9.311820
v 24.048815 -20.427097 43.617386
v 23.701855 -20.498875 -21.180208
v 21.983196 -25.356266 65.515434
v 20.001287 -29.613089 74.313477
v 19.942966 -30.000641 81.648888
v 20.585394 -29.939957 111.102089
v 17.597595 -38.444626 102.533020
v 23.003860 -34.192291 106.817558
v 15.179130 -34.192291 106.817543
v 6.271707 18.354475 163.529205
v 6.271707 23.818573 163.529205
v 6.917117 23.818573 168.008926
v 3.135854 18.354475 159.049484
v 3.135854 23.818573 159.049484
v 3.135854 15.622428 163.529205
v 3.135854 26.550621 163.529205
v 24.624231 13.798016 65.515434
v 28.255424 4.188504 43.617386
v 28.390932 1.386328 -7.943787
v 10.165173 30.816456 -71.954819
v 23.871565 -21.736130 -26.931318
v 24.844816 -29.388979 -33.565712
v 13.676149 -30.154167 -33.541637
v 15.026106 -38.379921 -33.565712
v 20.671022 -29.388981 -20.296925
v 24.336819 -29.388979 -26.931318
v 16.342436 -29.632778 -26.931318
v 16.807690 -37.285625 -26.931318
v 20.015612 -36.708336 128.128326
v 23.094446 -33.501465 131.986221
v 20.516306 -33.501465 121.797722
v 21.017000 -30.294598 135.844116
v 17.938164 -33.501465 131.986206
v 20.961630 -30.649240 130.323212
v 20.070984 -36.353691 123.460701
v 22.640028 -33.501465 126.891960
v 18.392584 -33.501465 126.891960
v 4.571287 -17.481688 -102.688759
v 30.075718 -1.133856 -77.033150
v 25.951128 30.455845 -46.339710
v 21.083488 33.838531 -52.049114
v 9.090652 21.617191 65.515434
v 10.662929 12.218113 43.617386
v 11.419447 7.640374 12.264141
v 7.871378 27.603502 73.775772
v 8.471573 27.219326 78.410156
v 22.288116 19.474037 -52.865910
v 12.560695 3.769131 -5.147579
v 10.484949 27.886280 87.572182
v 20.795023 17.625826 65.515434
v 24.101789 8.071294 43.617386
v 24.482376 3.906938 11.321272
v 28.199741 0.122454 10.389478
v 19.501898 16.038839 88.540642
v 17.132011 24.522871 74.809258
v 19.841074 21.533001 75.896980
v 24.749502 -2.887550 -70.593246
v 19.965017 -14.772236 -42.099987
v 20.367720 24.576015 -62.926292
v 15.098778 30.780796 -67.349876
v 0.067862 31.686977 -71.098457
v 26.260414 28.351433 -55.024872
v 27.948114 24.830315 -52.395168
v 6.140563 31.520899 -69.373100
v 20.642742 29.714773 -60.989426
v 15.978420 27.941137 -71.366417
v 17.114834 10.104112 -78.822403
v 20.886763 -15.673540 -21.369844
v 26.295454 -2.356133 -21.797274
v 21.957792 4.196973 -18.842892
v 26.575607 1.060941 -76.028351
v 35.606522 12.003657 117.619919
v 18.340401 11.290785 103.917358
v 34.088402 20.415905 131.875458
v 35.606522 18.463308 117.619919
v 32.983974 17.754530 132.956558
v 17.937693 5.742668 105.640236
v 15.891546 11.728755 120.062004
v 9.818911 16.819000 145.128891
v 43.157539 0.988311 -65.368881
v 31.738308 -2.104881 -61.157219
v 21.588089 12.632037 -41.985798
v 22.178694 18.448639 -49.701645
v 24.243370 17.466030 -47.486607
v 36.328861 16.217169 -32.582794
v 44.531158 15.523485 -21.284149
v 36.943279 17.521980 -34.005970
v 36.424217 18.177513 -33.593803
v 36.847923 15.561635 -32.994965
v 25.116129 22.988459 -57.047272
v 19.569832 13.856392 -67.110931
v 25.612640 10.611117 -56.346897
v 26.033289 6.915494 -55.525253
v 17.612345 16.877701 -72.585716
v 22.736998 9.364456 -62.320831
v 30.754629 -0.325153 -64.853874
v 9.681125 40.995747 -49.973675
v 24.612236 18.514349 -48.810989
v 10.047698 15.799423 -53.358364
v 11.215745 37.368282 -45.872337
v 1.861438 -27.467026 -96.294533
v 6.678187 4.165880 -22.543230
v -3.264327 19.112635 -95.257126
v -4.279352 27.388794 168.008926
v -2.022803 -45.647491 -70.255615
v -4.039118 -28.203461 -94.059853
v -4.765338 -42.342102 -70.255615
v -4.476815 -33.982819 -85.394356
v -1.851678 -36.160198 -85.394356
v -0.377648 1.008793 -128.563293
v -2.831232 -52.561958 -45.539581
v -4.883458 -49.795849 -53.522160
v -2.210687 -52.561954 -21.204288
v -6.174806 -46.278595 -21.204290
v -2.028798 -52.561954 65.515434
v -6.848530 -46.463146 65.515434
v -5.080624 -41.006378 76.349136
v -8.022341 -44.453308 72.619705
v -8.757692 -22.919289 92.018661
v -23.494862 -21.163227 -33.541637
v -5.232828 7.647099 140.474838
v -10.424331 9.203785 139.408890
v -5.232828 30.442225 140.474823
v -8.176855 -7.215199 105.522331
v -16.312386 -2.283368 104.456367
v -7.295333 32.208031 105.522331
v -2.089427 -52.561954 9.311820
v -7.282858 -46.481609 9.311819
v -2.028798 -52.561954 43.617386
v -7.005064 -46.412411 43.617386
v -0.419897 45.642624 -48.923409
v -25.567259 1.214225 -69.603477
v -27.179810 20.510681 -53.875854
v -33.007896 -2.715866 -64.457672
v -18.675289 -17.009531 87.374001
v -23.288280 9.800692 75.119987
v -21.801632 -6.251266 67.431160
v -23.958342 -8.660994 43.617386
v -25.208584 -8.630280 3.219819
v -6.437257 -34.883114 81.648888
v -14.936596 -40.398987 73.298256
v -14.511896 -40.364342 65.515434
v -14.476787 -39.995239 -21.204288
v -14.824967 -40.262871 43.617386
v -15.423545 -40.401268 9.311820
v -3.606889 -47.374218 73.298264
v -6.917117 18.354475 168.008926
v -14.549340 21.787872 104.456367
v -10.424331 25.592997 139.408890
v -4.279352 14.903846 168.008926
v -67.693344 26.760164 151.839905
v -43.200623 11.638439 92.320450
v -33.496437 -0.613320 78.412346
v -11.728171 17.009680 -92.909180
v -18.805737 -6.379238 -64.852676
v -22.213619 -5.218813 -46.427322
v -13.240139 -8.074657 -84.077797
v -14.484954 -16.404488 -68.939056
v -12.951638 -26.298576 -46.415283
v -7.548571 -26.474199 -85.394356
v -6.248144 -2.268919 -109.082993
v -1.128483 -10.295790 -115.787033
v -7.877306 -32.767048 -70.255615
v -6.043813 -43.845886 -45.539581
v -43.067509 4.339304 92.320450
v -19.152199 -19.518719 74.313477
v -64.039284 25.349289 123.635056
v -74.339684 32.196148 142.489197
v -84.445450 37.709293 164.617493
v -47.154552 12.175690 96.710327
v -62.974197 21.503483 135.452484
v -56.372669 16.264214 116.598343
v -69.411919 32.659439 159.742981
v -67.693336 33.678097 151.839920
v -62.974201 30.222733 135.452469
v -56.372669 24.274240 116.598328
v -27.611469 -1.304143 75.790573
v -23.653381 -6.920699 71.849091
v -25.750402 -8.603277 75.790581
v -25.757568 -2.864539 90.101852
v -32.072357 14.843857 124.935585
v -25.741304 5.145487 90.101852
v -34.550972 3.484274 82.599129
v -27.707674 -5.407833 74.552452
v -33.910503 -3.814861 82.599129
v -39.395031 5.014475 101.015587
v -39.395031 13.024502 101.015587
v -52.761116 4.349786 -64.697937
v -27.506626 10.336345 -48.607944
v -45.300804 1.000721 -70.556931
v -23.794914 -0.548588 -50.064419
v -40.341904 1.879906 -69.765747
v -44.775467 2.838603 -71.164146
v -28.181751 18.310299 -51.302841
v -23.003107 -33.275848 80.220711
v -21.775042 -35.970089 74.517570
v -23.279682 -32.523438 65.515434
v -25.225559 -29.649492 -21.204290
v -24.755737 -29.671246 43.617386
v -25.003614 -29.516333 9.311819
v -15.298123 -40.067513 76.349136
v -23.984535 -19.978872 9.311819
v -24.048817 -20.427099 43.617386
v -23.701857 -20.498875 -21.180210
v -21.983196 -25.356266 65.515434
v -20.001287 -29.613091 74.313477
v -19.942966 -30.000639 81.648888
v -20.585394 -29.939957 111.102081
v -17.597595 -38.444622 102.533020
v -23.003860 -34.192291 106.817543
v -15.179129 -34.192291 106.817558
v -6.271707 18.354475 163.529205
v -6.271707 23.818573 163.529205
v -6.917117 23.818573 168.008926
v -3.135854 18.354475 159.049484
v -3.135854 23.818573 159.049484
v -3.135854 15.622428 163.529205
v -3.135854 26.550621 163.529205
v -24.624231 13.798016 65.515434
v -28.255424 4.188504 43.617386
v -28.390932 1.386328 -7.943787
v -10.165173 30.816452 -71.954819
v -23.871565 -21.736130 -26.931320
v -24.844816 -29.388981 -33.565712
v -13.676150 -30.154169 -33.541637
v -15.026104 -38.379921 -33.565712
v -20.671022 -29.388979 -20.296925
v -24.336817 -29.388981 -26.931320
v -16.342436 -29.632776 -26.931320
v -16.807690 -37.285625 -26.931320
v -20.015612 -36.708336 128.128311
v -23.094446 -33.501465 131.986206
v -20.516306 -33.501465 121.797722
v -21.017000 -30.294598 135.844116
v -17.938166 -33.501465 131.986206
v -20.961630 -30.649240 130.323227
v -20.070984 -36.353691 123.460709
v -22.640028 -33.501465 126.891968
v -18.392584 -33.501465 126.891968
v -4.571287 -17.481688 -102.688759
v -30.075718 -1.133856 -77.033150
v -25.951128 30.455841 -46.339710
v -21.083488 33.838531 -52.049114
v -9.090652 21.617191 65.515434
v -10.662929 12.218113 43.617386
v -11.419447 7.640374 12.264139
v -7.871378 27.603504 73.775772
v -8.471573 27.219326 78.410156
v -22.288115 19.474037 -52.865910
v -12.560695 3.769131 -5.147579
v -10.484949 27.886280 87.572189
v -20.795023 17.625826 65.515434
v -24.101788 8.071294 43.617386
v -24.482376 3.906938 11.321271
v -28.199739 0.122454 10.389478
v -19.501898 16.038839 88.540642
v -17.132011 24.522873 74.809258
v -19.841074 21.533001 75.896973
v -24.749502 -2.887550 -70.593246
v -19.965015 -14.772235 -42.099987
v -20.367722 24.576015 -62.926292
v -15.098778 30.780796 -67.349876
v -0.067862 31.686977 -71.098457
v -26.260414 28.351433 -55.024872
v -27.948114 24.830315 -52.395168
v -6.140563 31.520899 -69.373108
v -20.642742 29.714771 -60.989433
v -15.978420 27.941137 -71.366417
v -17.114834 10.104112 -78.822403
v -20.886763 -15.673540 -21.369843
v -26.295454 -2.356133 -21.797276
v -21.957788 4.196973 -18.842890
v -26.575609 1.060941 -76.028351
v -35.606522 12.003656 117.619911
v -18.340401 11.290786 103.917358
v -34.088402 20.415905 131.875458
v -35.606522 18.463306 117.619911
v -32.983974 17.754530 132.956558
v -17.937693 5.742668 105.640228
v -15.891547 11.728755 120.062004
v -9.818911 16.819000 145.128891
v -43.157539 0.988311 -65.368881
v -31.738304 -2.104881 -61.157211
v -21.588089 12.632037 -41.985798
v -22.178692 18.448639 -49.701645
v -24.243370 17.466032 -47.486607
v -36.328861 16.217169 -32.582798
v -44.531158 15.523485 -21.284149
v -36.943279 17.521980 -34.005970
v -36.424213 18.177513 -33.593803
v -36.847927 15.561636 -32.994965
v -25.116129 22.988459 -57.047272
v -19.569832 13.856392 -67.110931
v -25.612637 10.611117 -56.346897
v -26.033289 6.915494 -55.525253
v -17.612345 16.877699 -72.585716
v -22.736998 9.364457 -62.320831
v -30.754627 -0.325153 -64.853874
v -9.681126 40.995743 -49.973675
v -24.612236 18.514349 -48.810989
v -10.047698 15.799425 -53.358372
v -11.215746 37.368286 -45.872337
v -1.861438 -27.467024 -96.294533
v -6.678187 4.165880 -22.543230
v 0.000000 -36.160202 -85.394356
v 7.777637 16.858541 -98.261581
v 4.218662 -31.393681 -89.658798
v 3.781264 28.646049 168.008926
v 1.850057 -32.700493 -90.217461
v 2.553426 -12.061079 -112.512474
v 7.248960 27.873749 -78.730553
v 3.781264 13.825974 168.008926
v 0.000000 7.647099 141.007797
v 7.562527 14.724201 168.008926
v 0.000000 17.760460 -97.628532
v 2.034096 0.168914 -123.699326
v 1.099318 5.661602 -120.230667
v 9.147118 8.036270 139.675369
v 0.565357 -1.944201 -125.375328
v 9.147118 29.229919 139.675385
v 0.000000 30.442225 141.007797
v 0.000000 -10.326975 -115.787033
v 0.000000 14.724201 168.008926
v 0.000000 1.029243 -128.557205
v 3.433802 -35.615856 -85.394356
v 14.108882 29.943052 -71.944984
v 4.697674 -37.216934 -79.511604
v 1.898520 -39.818436 -79.511604
v 0.000000 -45.647491 -70.255615
v 3.719838 -44.821144 -70.255615
v 2.306411 -50.833336 -58.605305
v 4.790402 -47.240887 -60.600952
v -0.000000 -52.561958 -45.989471
v 4.305965 -51.870430 -50.078800
v 0.000000 40.539070 -50.505058
v 2.422227 -52.561954 -33.468826
v 5.553492 -45.540161 -33.468826
v 0.000000 -52.561954 -21.204288
v 4.307060 -50.991116 -21.204288
v 2.002709 -52.561954 57.167336
v 6.861574 -46.419243 57.167339
v 0.000000 -52.561954 65.515434
v 4.248130 -51.037254 65.515434
v 0.000000 21.553185 65.515434
v 2.449410 -51.265022 70.334717
v 7.168071 -45.991909 70.165085
v 0.000000 -47.843655 73.298264
v 6.514197 -46.174557 73.128616
v 0.000000 27.552086 73.788139
v 5.393693 -38.885509 78.181686
v 14.618072 -40.435444 70.334717
v 0.000000 -34.883114 81.648888
v 12.874514 -34.883114 81.648888
v 0.000000 28.244530 88.459663
v 6.694616 0.842087 117.969658
v 13.327247 3.571789 116.370728
v 6.474236 31.781763 117.969658
v 0.000000 -7.215199 106.055298
v 14.299166 -5.982241 104.722862
v 12.756501 29.602991 104.722862
v 0.000000 32.208031 106.055298
v 9.068295 -15.482932 98.437202
v 18.416237 -8.948277 97.009552
v 8.398208 31.112408 97.325584
v 0.000000 -52.561954 43.617386
v 4.287264 -51.024570 43.617386
v 0.000000 12.218087 43.617386
v 2.123967 -52.561954 -7.394549
v 7.040385 -46.459606 -7.394549
v 0.000000 -52.561954 9.311819
v 4.432498 -51.041870 9.311819
v 0.000000 7.701593 12.264139
v 2.070045 -52.561954 26.965553
v 7.178870 -46.435566 26.965553
v 0.000000 45.689934 -48.820057
v 21.362778 18.696720 75.717491
v 24.526327 8.931482 65.994362
v 7.785026 31.566191 -68.444557
v 25.823914 31.322144 -42.356483
v 27.870005 1.108171 43.617386
v 28.488892 -2.152473 8.602601
v 27.816116 24.813244 -51.928104
v 23.865330 33.689663 -46.964481
v 28.960756 0.646513 -68.104752
v 29.504738 21.471935 -50.131104
v 34.318863 0.277094 -77.790253
v 29.310511 19.273178 -47.607330
v 21.722414 -5.106213 -58.313770
v 28.280365 -3.901499 -67.724670
v 23.478193 1.026070 -46.439365
v 0.000000 -22.919289 92.018661
v 24.640726 -9.717868 25.442554
v 26.341036 -5.003333 -9.670821
v 22.293167 12.504681 80.403847
v 22.965136 4.643251 71.269089
v 23.049341 -6.994008 57.646271
v 25.660860 -0.198807 -33.541634
v 15.615937 -21.441849 90.857498
v 15.587779 -30.000639 81.648888
v 15.692135 -29.613089 74.313477
v 16.791361 -26.030005 65.515434
v 17.977930 -21.694004 -21.156128
v 18.283554 -21.774574 43.617386
v 18.422071 -21.326347 9.311819
v 7.721771 -29.420578 86.383606
v 0.000000 -41.475811 76.349136
v 13.997983 -39.330898 -30.475355
v 14.590164 -40.276531 57.167336
v 15.131146 -40.309174 26.965553
v 15.709053 -40.516258 -8.842864
v 10.161248 -40.067513 76.349136
v 11.672655 -30.431763 -33.517551
v 9.952534 -40.398987 73.298256
v 9.639464 -40.364342 65.515434
v 7.928238 -39.995239 -21.204288
v 9.952534 -40.262871 43.617386
v 10.386862 -40.401268 9.311819
v 4.738279 -43.188393 75.078804
v 19.208632 -18.783932 79.104050
v 7.562527 27.598335 168.008926
v 16.419083 19.450720 97.301216
v 12.886485 23.639046 116.370735
v 0.000000 27.598335 168.008926
v 6.917117 26.550621 168.008926
v 22.010101 7.014157 88.527695
v 14.508016 11.367713 104.456367
v 10.252313 20.974884 140.838882
v 7.562527 23.818573 168.008926
v 25.140808 -3.771981 72.834457
v 51.245892 11.541422 105.343979
v 23.679733 -9.085922 72.834457
v 6.917117 15.622428 168.008926
v 21.823778 -7.255455 88.236031
v 16.698050 2.189056 104.752342
v 10.252313 11.885932 140.838882
v 27.514315 -1.542384 -75.023285
v 14.870401 25.790369 -79.436577
v 18.766380 -10.238820 -59.313011
v 15.905448 3.004190 -82.105667
v 8.278497 6.142206 -105.039536
v 17.672855 -8.851729 -67.259186
v 17.357475 -19.105812 -45.324417
v 14.300916 -11.441578 -77.536758
v 10.742568 -5.338759 -93.085434
v 13.974460 -21.758461 -58.495090
v 10.120612 -19.208698 -85.065216
v 10.725336 -25.541573 -69.926476
v 8.572190 -34.996586 -46.208401
v 5.168585 -9.663587 -107.484428
v 7.962237 -28.919533 -79.511604
v 6.472768 -23.353951 -91.816017
v 3.336576 -27.619949 -95.735863
v 7.251819 -37.811058 -58.605305
v 4.664899 -50.382938 -41.646328
v 5.631483 -31.016972 -85.394356
v 4.260161 -24.177040 -97.334419
v 1.687140 -20.114042 -104.519676
v 5.903197 -38.295647 -70.255615
v 5.301508 -47.616833 -50.078800
v 19.638897 -16.309345 71.067459
v 25.432779 1.061530 74.884384
v 22.750660 -6.699680 70.451355
v 22.531782 -11.742674 74.682755
v 64.039284 29.354301 123.635056
v 74.339684 36.555775 142.489212
v 84.445450 41.168259 164.617493
v 90.091469 39.934494 178.261414
v 69.879944 28.908203 134.004837
v 78.799423 35.484097 150.973572
v 58.198631 21.790375 113.265282
v 64.039284 21.344276 123.635056
v 74.339684 27.836525 142.489212
v 84.445450 34.250328 164.617493
v 47.106560 15.825256 96.710327
v 38.217987 4.171095 83.858353
v 47.202549 8.526123 96.710327
v 28.625067 1.371964 81.339142
v 69.411919 30.260704 159.742981
v 22.259766 1.253343 99.171333
v 69.411919 35.058174 159.742981
v 65.654266 32.124222 143.791519
v 59.823540 27.697964 126.496765
v 35.989040 4.194199 81.889374
v 27.298607 -6.265303 81.339142
v 35.822647 -1.119743 81.889366
v 51.279171 19.178690 105.343979
v 65.654266 23.695724 143.791519
v 59.823540 19.315594 126.496758
v 33.508114 14.334695 122.566132
v 21.474855 8.842928 98.740623
v 30.444239 0.303497 78.231270
v 25.106741 -6.596143 72.818169
v 29.359497 -6.995638 78.231270
v 31.330151 -0.040117 94.014137
v 31.326086 7.969909 94.014137
v 38.703281 0.933538 91.226578
v 35.000019 21.066978 139.896423
v 37.768517 16.452843 110.351547
v 29.738733 -1.440227 76.564125
v 28.938147 -6.754169 76.564125
v 38.863400 8.570805 91.226578
v 37.768517 8.635373 110.351547
v 50.412033 20.036005 138.725037
v 39.085243 7.506488 87.695190
v 30.742226 -3.399111 76.575867
v 38.710735 0.207353 87.695190
v 50.449539 15.962006 127.475967
v 48.294952 10.911749 109.184280
v 48.732368 25.384386 141.224548
v 50.916046 26.617470 140.460007
v 50.449539 24.116356 127.475967
v 48.294952 18.921776 109.184280
v 32.548504 -1.296818 -61.602997
v 55.232067 5.400111 -64.538040
v 25.282553 -2.909326 -57.602318
v 30.928110 -2.912944 -60.711437
v 46.778172 2.270282 -70.599083
v 54.930256 4.372190 -63.530109
v 42.083405 -0.619460 -70.776230
v 26.184137 2.434378 -45.440121
v 41.032726 3.056304 -71.990669
v 25.207819 -1.317675 -58.575924
v 28.094660 17.729912 -50.699528
v 35.671352 -2.370748 -77.583740
v 22.320692 -34.783379 77.366753
v 22.731171 -34.308594 87.584015
v 24.298153 -30.000639 81.648888
v 22.599302 -31.202337 74.364502
v 24.903234 -26.811192 65.515434
v 26.944746 -22.188965 -21.198269
v 27.108177 -22.064396 43.617386
v 27.020536 -21.689499 9.311819
v 24.894297 -29.358225 26.965553
v 25.098307 -29.910004 -8.842864
v 22.242081 -34.536903 70.639549
v 24.310133 -30.658588 57.167339
v 19.485792 -39.043156 75.891243
v 25.352810 -29.388979 -33.565712
v 19.138239 -39.291763 73.603088
v 19.140059 -38.404114 65.515434
v 21.025333 -39.995239 -21.204288
v 19.743876 -37.614964 43.617386
v 20.336903 -37.680035 9.311819
v 15.239327 -40.271000 75.078812
v 23.689650 -20.588789 -30.439234
v 15.234951 -39.826271 77.364357
v 24.181488 -19.754751 26.965553
v 23.732981 -20.445049 -7.388529
v 23.383667 -22.219681 57.167339
v 20.603653 -28.324766 70.588524
v 19.787516 -30.061321 77.364357
v 20.098417 -29.939957 85.933426
v 17.483746 -33.501465 131.986206
v 23.548868 -33.501465 131.986206
v 19.960239 -37.062977 127.701675
v 21.072371 -29.939957 136.270752
v 16.908098 -29.939957 111.102089
v 24.262690 -29.939957 111.102089
v 21.745033 -38.444626 102.533020
v 14.919261 -37.381542 103.604156
v 3.135854 26.550621 168.008926
v 7.562527 18.354475 168.008926
v 3.135854 15.622428 168.008926
v 6.271707 18.354475 168.008926
v 6.271707 23.818573 168.008926
v 6.271707 26.550621 163.529205
v 6.917117 21.086523 168.008926
v 0.000000 23.818573 159.049484
v 3.135854 26.550621 159.049484
v 0.000000 18.354475 159.049484
v 3.135854 15.622428 159.049484
v 6.271707 18.354475 159.049484
v 6.271707 23.818573 159.049484
v 3.135854 21.086523 159.049484
v 6.271707 21.086523 163.529205
v 6.271707 15.622428 163.529205
v 0.000000 15.622428 163.529205
v 0.000000 26.550621 163.529205
v 21.804350 17.853712 70.984398
v 27.156120 9.273687 57.167339
v 28.433010 0.489186 27.234970
v 26.371250 2.229536 -10.988160
v 22.070009 21.140480 -55.609150
v 11.577224 50.425301 -31.502796
v 18.522455 36.396172 -50.920589
v 16.807690 -37.285625 -33.565712
v 15.344470 -29.885025 -31.901096
v 24.336817 -29.388979 -33.565712
v 23.208775 -21.979927 -33.565712
v 27.939739 -21.124964 -33.563919
v 18.487658 -23.793558 -33.529591
v 20.512592 -36.132187 -33.565712
v 11.656808 -36.323483 -33.559696
v 17.773523 -35.311466 -21.955521
v 17.755978 -29.449928 -21.955521
v 23.420368 -29.388979 -21.955521
v 23.402824 -23.527443 -21.955524
v 25.869534 -23.527443 -26.931318
v 20.107628 -23.832191 -26.931318
v 20.805508 -35.311462 -26.931318
v 14.575840 -35.372414 -26.931318
v 22.640028 -33.501465 131.986206
v 20.070984 -36.353691 128.554962
v 22.787502 -31.096313 134.879639
v 22.112322 -35.906616 129.092804
v 18.169249 -35.906616 129.092789
v 18.392584 -33.501465 121.797722
v 22.640028 -33.501465 121.797722
v 20.070984 -36.353691 118.366463
v 20.961630 -30.649240 125.228981
v 19.291243 -31.362297 129.465393
v 18.392584 -33.501465 131.986206
v 20.961630 -30.649240 135.417465
v 18.996151 -31.096313 134.879639
v 22.409353 -31.362297 129.465393
v 21.808842 -35.640633 124.318512
v 18.555786 -35.640633 124.318512
v 26.141436 1.608111 -73.795128
v 24.558167 9.017045 -58.652069
v 20.842949 11.146517 -65.693642
v 14.909410 15.960165 -84.622070
v 20.514658 29.887276 -60.492210
v 17.479925 14.352738 -75.293816
v 7.943903 25.182022 70.454102
v 12.138810 7.014981 0.310029
v 8.607181 24.985340 80.531357
v 10.796266 8.442390 27.703632
v 10.325653 17.199169 57.167339
v 16.562071 20.683357 65.515434
v 19.354109 11.181435 43.617386
v 20.394903 6.645796 12.028423
v 14.122226 26.884762 74.021782
v 0.000000 27.226673 78.437279
v 14.872469 26.537867 77.482811
v 8.253720 28.432362 76.190956
v 0.000000 3.872127 -4.941162
v 28.795311 4.940807 -22.010988
v 18.142197 21.457729 70.712471
v 23.358788 13.129552 57.167339
v 24.113247 4.360580 27.467916
v 21.775940 4.459934 -0.868557
v 23.059185 14.609182 65.515434
v 26.528162 5.027160 43.617386
v 26.233459 1.155318 10.616888
v 6.371395 0.087672 -6.575876
v 28.321682 -1.276215 -5.461407
v 28.028191 1.088203 -2.732350
v 16.299307 25.302046 88.701782
v 16.734554 24.866863 81.132973
v 18.503904 22.183670 75.610298
v 20.364037 -3.610345 -67.672729
v 20.557634 -15.199841 -32.614193
v 21.019184 -10.729610 -45.339470
v 16.527170 30.488626 -65.558678
v 0.101793 31.794327 -70.911110
v 0.000000 31.750034 -71.021637
v 14.876471 30.967379 -67.416222
v 25.616890 7.613071 -56.180943
v 26.391489 28.188694 -54.659229
v 24.776745 28.866590 -56.519154
v 18.401739 13.321924 -70.071892
v 0.101793 31.453514 -71.439445
v 26.287840 28.165527 -55.384212
v 28.080109 24.847385 -52.862236
v 7.566382 31.159100 -69.779968
v 20.770824 29.542269 -61.486652
v 15.236284 30.645538 -67.685677
v 20.338785 3.713658 -75.845917
v 22.065910 -14.161098 -9.160613
v 23.693354 -9.333956 -21.583557
v 0.000000 3.977981 -22.944151
v 27.632719 0.003393 -76.906555
v 17.235579 14.643874 124.688568
v 23.288893 13.956985 108.796364
v 34.012127 19.602221 124.301079
v 17.235579 10.124673 124.688568
v 30.967926 14.442081 126.016685
v 23.188217 8.855019 109.227081
v 13.203484 10.417715 110.808838
v 48.040173 2.973053 -65.529526
v 43.691544 1.916045 -66.174736
v 42.623531 0.060577 -64.563026
v 37.820995 -0.929361 -63.987579
v 28.298807 12.535066 -38.993652
v 21.363937 8.436821 -32.814175
v 22.568487 15.926985 -46.746895
v 28.926020 17.073290 -45.043102
v 22.858324 18.715731 -49.820251
v 22.978199 18.400894 -50.480553
v 28.555944 19.358038 -45.566135
v 29.009304 18.785484 -45.926128
v 22.623619 17.952324 -48.806622
v 28.472660 17.645844 -44.683105
v 44.769833 14.049981 -20.946825
v 44.292484 16.996990 -21.621473
v 44.877254 16.258476 -22.085814
v 44.185059 14.788495 -20.482485
v 36.246773 17.361225 -32.985256
v 36.564556 15.399316 -32.536129
v 37.025372 16.377924 -33.603508
v 36.707584 18.339832 -34.052639
v 22.840851 3.103432 -65.946739
v 23.441704 23.814238 -59.117893
v 26.119371 21.940123 -55.653557
v 26.449694 6.217916 -54.869560
v 28.268841 18.890686 -51.906162
v 17.383512 25.782183 -67.374962
v 19.966696 19.412983 -64.692276
v 26.337866 15.867438 -55.000427
v 26.983141 13.880779 -52.944317
v 16.911886 23.275572 -72.277084
v 23.935493 16.993923 -59.197193
v 35.924854 0.722373 -69.220818
v 0.373143 32.117489 -70.313667
v 0.466652 59.167759 -27.533155
v 0.839795 45.595314 -49.026764
v 7.673961 9.113369 -38.230690
v 15.265718 19.674894 -58.124489
v 15.347632 13.472369 -46.325012
v 0.000000 15.396898 -55.165524
v 15.801442 17.539240 -53.837154
v 7.356670 21.614946 -67.727371
v 0.000000 -27.498211 -96.294533
v 19.114187 1.375818 -6.665090
v 13.837181 4.361552 -21.217224
v -7.777637 16.858541 -98.261581
v -4.218662 -31.393682 -89.658798
v -3.781264 28.646049 168.008926
v -1.850057 -32.700493 -90.217461
v -2.553426 -12.061079 -112.512474
v -7.248960 27.873749 -78.730553
v -3.781264 13.825974 168.008926
v -7.562527 14.724201 168.008926
v -2.034096 0.168914 -123.699326
v -1.099318 5.661602 -120.230667
v -9.147118 8.036270 139.675385
v -0.565357 -1.944201 -125.375328
v -9.147118 29.229918 139.675369
v -3.433802 -35.615856 -85.394356
v -14.108882 29.943052 -71.944984
v -4.697674 -37.216934 -79.511604
v -1.898520 -39.818436 -79.511604
v -3.719838 -44.821144 -70.255615
v -2.306411 -50.833336 -58.605305
v -4.790402 -47.240887 -60.600952
v -4.305965 -51.870430 -50.078800
v -2.422227 -52.561954 -33.468826
v -5.553492 -45.540161 -33.468826
v -4.307060 -50.991116 -21.204290
v -2.002709 -52.561954 57.167339
v -6.861574 -46.419243 57.167336
v -4.248130 -51.037254 65.515434
v -2.449410 -51.265022 70.334724
v -7.168071 -45.991909 70.165085
v -6.514197 -46.174557 73.128624
v -5.393693 -38.885509 78.181686
v -14.618072 -40.435444 70.334717
v -12.874514 -34.883114 81.648888
v -6.694616 0.842087 117.969658
v -13.327247 3.571789 116.370728
v -6.474236 31.781763 117.969658
v -14.299166 -5.982241 104.722862
v -12.756501 29.602991 104.722862
v -9.068295 -15.482932 98.437202
v -18.416237 -8.948277 97.009544
v -8.398208 31.112408 97.325592
v -4.287264 -51.024570 43.617386
v -2.123967 -52.561954 -7.394549
v -7.040385 -46.459606 -7.394549
v -4.432498 -51.041870 9.311819
v -2.070045 -52.561954 26.965553
v -7.178870 -46.435566 26.965553
v -21.362778 18.696720 75.717491
v -24.526327 8.931481 65.994362
v -7.785026 31.566191 -68.444557
v -25.823914 31.322144 -42.356483
v -27.870005 1.108171 43.617386
v -28.488892 -2.152473 8.602601
v -27.816116 24.813244 -51.928104
v -23.865330 33.689663 -46.964481
v -28.960756 0.646513 -68.104752
v -29.504738 21.471935 -50.131104
v -34.318863 0.277094 -77.790253
v -29.310511 19.273178 -47.607330
v -21.722414 -5.106213 -58.313770
v -28.280365 -3.901499 -67.724670
v -23.478193 1.026070 -46.439365
v -24.640726 -9.717868 25.442554
v -26.341036 -5.003333 -9.670822
v -22.293167 12.504681 80.403847
v -22.965136 4.643250 71.269089
v -23.049341 -6.994009 57.646271
v -25.660860 -0.198807 -33.541634
v -15.615937 -21.441849 90.857498
v -15.587779 -30.000639 81.648888
v -15.692135 -29.613089 74.313477
v -16.791361 -26.030005 65.515434
v -17.977930 -21.694004 -21.156128
v -18.283554 -21.774574 43.617386
v -18.422071 -21.326347 9.311819
v -7.721771 -29.420578 86.383606
v -13.997983 -39.330898 -30.475355
v -14.590164 -40.276535 57.167339
v -15.131146 -40.309174 26.965553
v -15.709053 -40.516258 -8.842864
v -10.161248 -40.067513 76.349136
v -11.672655 -30.431763 -33.517551
v -9.952534 -40.398987 73.298256
v -9.639464 -40.364342 65.515434
v -7.928238 -39.995239 -21.204288
v -9.952534 -40.262871 43.617386
v -10.386862 -40.401268 9.311819
v -4.738279 -43.188393 75.078812
v -19.208632 -18.783932 79.104050
v -7.562527 27.598335 168.008926
v -16.419083 19.450720 97.301216
v -12.886485 23.639046 116.370735
v -6.917117 26.550621 168.008926
v -22.010101 7.014157 88.527695
v -14.508016 11.367713 104.456367
v -10.252313 20.974884 140.838882
v -7.562527 23.818573 168.008926
v -25.140808 -3.771981 72.834457
v -51.245892 11.541422 105.343979
v -23.679733 -9.085922 72.834465
v -6.917117 15.622428 168.008926
v -21.823778 -7.255455 88.236031
v -16.698050 2.189056 104.752335
v -10.252313 11.885932 140.838882
v -27.514315 -1.542384 -75.023285
v -14.870401 25.790369 -79.436577
v -18.766380 -10.238820 -59.313011
v -15.905447 3.004190 -82.105667
v -8.278497 6.142206 -105.039536
v -17.672855 -8.851729 -67.259178
v -17.357473 -19.105810 -45.324417
v -14.300916 -11.441578 -77.536758
v -10.742568 -5.338759 -93.085449
v -13.974460 -21.758461 -58.495090
v -10.120612 -19.208698 -85.065216
v -10.725336 -25.541573 -69.926476
v -8.572190 -34.996586 -46.208401
v -5.168585 -9.663587 -107.484428
v -7.962237 -28.919533 -79.511604
v -6.472768 -23.353951 -91.816017
v -3.336576 -27.619949 -95.735863
v -7.251819 -37.811058 -58.605305
v -4.664899 -50.382938 -41.646328
v -5.631483 -31.016972 -85.394356
v -4.260161 -24.177040 -97.334419
v -1.687140 -20.114042 -104.519676
v -5.903197 -38.295647 -70.255615
v -5.301508 -47.616833 -50.078800
v -19.638897 -16.309345 71.067459
v -25.432779 1.061530 74.884384
v -22.750660 -6.699680 70.451363
v -22.531782 -11.742674 74.682755
v -64.039284 29.354301 123.635056
v -74.339684 36.555775 142.489212
v -84.445450 41.168259 164.617493
v -90.091469 39.934494 178.261414
v -69.879944 28.908203 134.004837
v -78.799423 35.484097 150.973572
v -58.198631 21.790375 113.265282
v -64.039284 21.344276 123.635056
v -74.339684 27.836525 142.489212
v -84.445450 34.250328 164.617493
v -47.106560 15.825256 96.710327
v -38.217987 4.171095 83.858353
v -47.202549 8.526123 96.710327
v -28.625067 1.371964 81.339134
v -69.411919 30.260704 159.742981
v -22.259766 1.253343 99.171333
v -69.411919 35.058174 159.742981
v -65.654266 32.124218 143.791519
v -59.823540 27.697964 126.496758
v -35.989040 4.194199 81.889374
v -27.298609 -6.265303 81.339142
v -35.822647 -1.119743 81.889366
v -51.279167 19.178690 105.343979
v -65.654266 23.695724 143.791519
v -59.823540 19.315594 126.496765
v -33.508114 14.334694 122.566116
v -21.474855 8.842928 98.740623
v -30.444239 0.303497 78.231262
v -25.106741 -6.596143 72.818169
v -29.359497 -6.995638 78.231270
v -31.330153 -0.040117 94.014137
v -31.326086 7.969909 94.014137
v -38.703281 0.933538 91.226578
v -35.000019 21.066978 139.896423
v -37.768517 16.452843 110.351547
v -29.738733 -1.440227 76.564117
v -28.938147 -6.754169 76.564117
v -38.863400 8.570805 91.226578
v -37.768517 8.635373 110.351547
v -50.412033 20.036005 138.725037
v -39.085243 7.506488 87.695190
v -30.742226 -3.399111 76.575859
v -38.710735 0.207353 87.695190
v -50.449535 15.962006 127.475975
v -48.294952 10.911749 109.184280
v -48.732368 25.384386 141.224548
v -50.916046 26.617470 140.460007
v -50.449539 24.116356 127.475967
v -48.294952 18.921776 109.184280
v -32.548504 -1.296818 -61.602997
v -55.232067 5.400111 -64.538040
v -25.282553 -2.909326 -57.602318
v -30.928110 -2.912944 -60.711437
v -46.778172 2.270282 -70.599083
v -54.930256 4.372190 -63.530109
v -42.083405 -0.619460 -70.776230
v -26.184137 2.434378 -45.440121
v -41.032726 3.056304 -71.990669
v -25.207819 -1.317675 -58.575924
v -28.094660 17.729912 -50.699528
v -35.671352 -2.370748 -77.583740
v -22.320692 -34.783382 77.366753
v -22.731171 -34.308594 87.584015
v -24.298153 -30.000639 81.648888
v -22.599302 -31.202339 74.364502
v -24.903234 -26.811192 65.515434
v -26.944746 -22.188965 -21.198269
v -27.108177 -22.064398 43.617386
v -27.020536 -21.689501 9.311819
v -24.894297 -29.358225 26.965553
v -25.098307 -29.910004 -8.842864
v -22.242083 -34.536903 70.639549
v -24.310135 -30.658588 57.167336
v -19.485792 -39.043159 75.891243
v -25.352810 -29.388979 -33.565712
v -19.138239 -39.291763 73.603088
v -19.140060 -38.404114 65.515434
v -21.025333 -39.995239 -21.204288
v -19.743876 -37.614964 43.617386
v -20.336903 -37.680035 9.311819
v -15.239327 -40.271000 75.078812
v -23.689651 -20.588789 -30.439236
v -15.234951 -39.826271 77.364357
v -24.181488 -19.754753 26.965553
v -23.732981 -20.445049 -7.388529
v -23.383667 -22.219681 57.167336
v -20.603653 -28.324766 70.588524
v -19.787516 -30.061321 77.364357
v -20.098417 -29.939957 85.933426
v -17.483746 -33.501465 131.986206
v -23.548868 -33.501465 131.986206
v -19.960239 -37.062977 127.701675
v -21.072371 -29.939957 136.270752
v -16.908098 -29.939957 111.102089
v -24.262690 -29.939957 111.102089
v -21.745033 -38.444626 102.533020
v -14.919261 -37.381542 103.604156
v -3.135854 26.550621 168.008926
v -7.562527 18.354475 168.008926
v -3.135854 15.622428 168.008926
v -6.271707 18.354475 168.008926
v -6.271707 23.818573 168.008926
v -6.271707 26.550621 163.529205
v -6.917117 21.086523 168.008926
v -3.135854 26.550621 159.049484
v -3.135854 15.622428 159.049484
v -6.271707 18.354475 159.049484
v -6.271707 23.818573 159.049484
v -3.135854 21.086523 159.049484
v -6.271707 21.086523 163.529205
v -6.271707 15.622428 163.529205
v -21.804350 17.853712 70.984398
v -27.156120 9.273687 57.167336
v -28.433008 0.489186 27.234970
v -26.371250 2.229536 -10.988160
v -22.070009 21.140480 -55.609150
v -11.577224 50.425301 -31.502796
v -18.522455 36.396172 -50.920589
v -16.807690 -37.285625 -33.565712
v -15.344470 -29.885023 -31.901096
v -24.336817 -29.388979 -33.565712
v -23.208775 -21.979927 -33.565712
v -27.939739 -21.124964 -33.563919
v -18.487659 -23.793558 -33.529594
v -20.512590 -36.132187 -33.565712
v -11.656808 -36.323483 -33.559696
v -17.773521 -35.311462 -21.955524
v -17.755978 -29.449928 -21.955524
v -23.420368 -29.388981 -21.955524
v -23.402824 -23.527443 -21.955524
v -25.869534 -23.527443 -26.931320
v -20.107628 -23.832190 -26.931320
v -20.805508 -35.311466 -26.931320
v -14.575841 -35.372414 -26.931320
v -22.640028 -33.501465 131.986206
v -20.070984 -36.353691 128.554962
v -22.787502 -31.096313 134.879639
v -22.112322 -35.906616 129.092789
v -18.169249 -35.906616 129.092789
v -18.392584 -33.501465 121.797722
v -22.640028 -33.501465 121.797722
v -20.070984 -36.353691 118.366463
v -20.961630 -30.649240 125.228981
v -19.291243 -31.362297 129.465408
v -18.392584 -33.501465 131.986206
v -20.961630 -30.649240 135.417465
v -18.996151 -31.096313 134.879639
v -22.409353 -31.362297 129.465408
v -21.808842 -35.640633 124.318527
v -18.555786 -35.640633 124.318527
v -26.141436 1.608111 -73.795128
v -24.558165 9.017045 -58.652069
v -20.842949 11.146517 -65.693642
v -14.909410 15.960165 -84.622070
v -20.514658 29.887276 -60.492210
v -17.479923 14.352737 -75.293816
v -7.943903 25.182022 70.454102
v -12.138810 7.014981 0.310029
v -8.607181 24.985340 80.531357
v -10.796266 8.442390 27.703632
v -10.325653 17.199169 57.167336
v -16.562071 20.683357 65.515434
v -19.354109 11.181435 43.617386
v -20.394903 6.645796 12.028422
v -14.122226 26.884762 74.021782
v -14.872469 26.537867 77.482811
v -8.253720 28.432362 76.190956
v -28.795311 4.940807 -22.010988
v -18.142197 21.457729 70.712471
v -23.358788 13.129552 57.167336
v -24.113247 4.360580 27.467916
v -21.775940 4.459934 -0.868557
v -23.059185 14.609182 65.515434
v -26.528162 5.027160 43.617386
v -26.233458 1.155318 10.616889
v -6.371395 0.087672 -6.575876
v -28.321682 -1.276215 -5.461407
v -28.028189 1.088203 -2.732350
v -16.299307 25.302046 88.701782
v -16.734554 24.866863 81.132973
v -18.503904 22.183670 75.610298
v -20.364037 -3.610346 -67.672729
v -20.557632 -15.199841 -32.614193
v -21.019184 -10.729610 -45.339470
v -16.527170 30.488625 -65.558678
v -0.101793 31.794327 -70.911110
v -14.876471 30.967379 -67.416222
v -25.616890 7.613071 -56.180943
v -26.391489 28.188694 -54.659229
v -24.776745 28.866589 -56.519154
v -18.401739 13.321924 -70.071892
v -0.101793 31.453514 -71.439445
v -26.287840 28.165527 -55.384212
v -28.080109 24.847385 -52.862236
v -7.566382 31.159100 -69.779968
v -20.770824 29.542269 -61.486652
v -15.236284 30.645538 -67.685677
v -20.338785 3.713658 -75.845917
v -22.065910 -14.161098 -9.160613
v -23.693354 -9.333956 -21.583557
v -27.632719 0.003393 -76.906548
v -17.235579 14.643874 124.688568
v -23.288893 13.956985 108.796356
v -34.012127 19.602219 124.301079
v -17.235579 10.124673 124.688568
v -30.967926 14.442081 126.016685
v -23.188217 8.855019 109.227074
v -13.203484 10.417715 110.808838
v -48.040173 2.973053 -65.529526
v -43.691544 1.916045 -66.174736
v -42.623531 0.060577 -64.563026
v -37.820992 -0.929361 -63.987576
v -28.298807 12.535066 -38.993652
v -21.363937 8.436821 -32.814175
v -22.568487 15.926985 -46.746895
v -28.926020 17.073290 -45.043102
v -22.858322 18.715731 -49.820251
v -22.978197 18.400894 -50.480553
v -28.555944 19.358038 -45.566135
v -29.009304 18.785484 -45.926128
v -22.623619 17.952324 -48.806622
v -28.472660 17.645844 -44.683105
v -44.769833 14.049981 -20.946825
v -44.292484 16.996990 -21.621473
v -44.877254 16.258476 -22.085814
v -44.185059 14.788495 -20.482485
v -36.246773 17.361225 -32.985256
v -36.564556 15.399317 -32.536129
v -37.025372 16.377924 -33.603508
v -36.707584 18.339832 -34.052639
v -22.840855 3.103432 -65.946739
v -23.441704 23.814238 -59.117893
v -26.119371 21.940123 -55.653557
v -26.449694 6.217916 -54.869560
v -28.268841 18.890686 -51.906162
v -17.383512 25.782183 -67.374962
v -19.966696 19.412983 -64.692276
v -26.337864 15.867438 -55.000427
v -26.983141 13.880779 -52.944317
v -16.911886 23.275572 -72.277084
v -23.935493 16.993923 -59.197193
v -35.924854 0.722373 -69.220818
v -0.373143 32.117489 -70.313667
v -0.466652 59.167759 -27.533155
v -0.839795 45.595314 -49.026764
v -7.673961 9.113369 -38.230694
v -15.265718 19.674894 -58.124489
v -15.347632 13.472370 -46.325012
v -15.801442 17.539240 -53.837154
v -7.356670 21.614946 -67.727371
v -19.114187 1.375818 -6.665090
v -13.837181 4.361552 -21.217224
v 3.635068 5.324100 -117.338364
v 6.617211 28.384121 168.008926
v 1.998842 -3.871364 -120.904137
v 3.367237 -32.365997 -90.077797
v 6.617211 14.050530 168.008926
v 12.271153 26.719225 -80.451584
v 3.547569 -39.168060 -79.511604
v 14.823765 31.051308 -66.678253
v 3.967130 -49.935226 -59.740112
v 4.319883 -50.806507 -32.495510
v 4.218780 -51.026276 57.167336
v 4.853781 -49.829384 70.292313
v 10.056892 -39.826271 77.364357
v 11.700083 1.524512 116.770470
v 11.314416 29.746084 116.770470
v 15.939429 -13.849268 97.947044
v 14.181941 28.291391 97.408119
v 4.415056 -51.036369 -7.394549
v 4.382273 -51.030357 26.965553
v 28.384462 -1.988527 26.788248
v 27.920610 0.386583 -11.600289
v 19.452148 21.915251 81.191002
v 22.798426 14.688213 71.059258
v 26.674351 5.345537 57.287067
v 29.426680 20.903246 -49.550041
v 22.221146 41.741039 -35.162926
v 33.642620 1.807628 -76.947762
v 24.278893 -0.514603 -59.261745
v 37.612484 -2.491580 -75.357361
v 27.939915 8.566662 -33.565712
v 19.016472 -6.514521 -59.313011
v 18.619028 -21.102226 26.965551
v 18.079454 -21.754436 -7.382509
v 15.483421 -30.061321 77.364357
v 16.071297 -28.493202 70.588524
v 17.609665 -23.398720 57.167336
v 16.411121 -23.726097 -30.403118
v 15.692136 -29.939957 85.933426
v 10.217651 -40.309174 26.965551
v 10.508120 -40.516258 -8.842864
v 9.717731 -40.435444 70.334724
v 9.717731 -40.276535 57.167336
v 10.161247 -40.271000 75.078819
v 7.574402 -37.343861 -30.463316
v 25.327507 3.401477 80.032784
v 7.562527 26.550621 168.008926
v 17.914949 10.873523 97.560242
v 13.203484 14.936916 110.808838
v 7.562527 15.622428 168.008926
v 19.716431 -2.314808 97.595016
v 13.203484 5.898514 110.808838
v 23.013138 -10.148626 79.707840
v 19.563965 -0.278908 -75.411217
v 13.033869 6.055656 -90.805031
v 18.215599 -13.776639 -56.798981
v 10.728871 -21.702097 -79.017891
v 8.425528 -15.912241 -92.932663
v 10.032331 -30.161587 -58.690224
v 5.964131 -33.841835 -79.511604
v 5.023932 -28.301796 -90.477440
v 3.173965 -21.083014 -102.723366
v 5.623912 -43.260086 -59.740112
v 4.814554 -50.364128 -46.957157
v 24.011848 -1.730562 72.038544
v 21.928144 -10.954166 71.988136
v 58.198631 25.600351 113.265282
v 90.091469 42.333225 178.261414
v 69.879944 33.108253 134.004837
v 78.799423 40.003296 150.973572
v 90.091469 37.535759 178.261414
v 69.879944 24.708153 134.004837
v 78.799423 30.964895 150.973572
v 58.198631 17.980398 113.265282
v 39.727200 7.302779 86.444366
v 39.674580 3.318997 86.444366
v 26.875330 -3.126654 74.171448
v 32.412754 -3.711927 84.883537
v 25.735716 -8.440596 74.171448
v 32.899239 3.925340 84.883537
v 27.719404 4.116596 103.002258
v 21.267672 14.350832 138.568298
v 27.523176 11.594643 102.894577
v 45.278297 6.431263 98.627121
v 48.732368 22.985649 141.224548
v 48.732368 27.783123 141.224548
v 51.022861 25.339502 134.682938
v 49.454197 22.219845 118.942093
v 33.015236 1.071868 79.355698
v 32.547100 -4.242074 79.355690
v 45.371925 14.068531 98.627121
v 50.896858 17.701246 134.249207
v 49.454197 13.978700 118.942093
v 58.561226 5.690696 -63.038292
v 48.422829 4.304979 -67.033577
v 26.136744 -2.120747 -57.890102
v 47.819206 2.249137 -65.017715
v 34.995110 -1.150133 -78.159866
v 24.428360 -3.697905 -57.314529
v 19.451502 -39.480858 83.656525
v 27.140924 -21.481882 26.965553
v 26.903112 -22.115707 -7.393044
v 23.067221 -30.046150 78.435493
v 23.279438 -29.793583 70.601280
v 26.502285 -23.739885 57.167336
v 28.061234 -22.128542 -33.103844
v 24.504700 -29.939957 85.933426
v 20.028683 -37.571434 26.965551
v 20.909986 -40.516258 -8.842864
v 18.974243 -38.960808 70.410934
v 19.456373 -37.872047 57.167336
v 18.160408 -39.776344 74.903069
v 22.164877 -37.083164 -30.475355
v 17.782711 -36.172600 128.772797
v 18.124062 -29.939957 136.270752
v 23.077053 -37.062977 127.701675
v 24.020683 -29.939957 136.270752
v 6.271707 26.550621 168.008926
v 7.562527 21.086523 168.008926
v 6.271707 15.622428 168.008926
v 6.271707 21.086523 168.008926
v 6.271707 26.550621 159.049484
v 6.271707 15.622428 159.049484
v 6.271707 21.086523 159.049484
v 19.205544 -24.005383 -31.898085
v 13.763233 -35.640656 -31.905607
v 27.363266 -21.789108 -33.400787
v 20.805508 -35.311462 -33.565712
v 20.464521 -25.164486 -23.245546
v 16.288914 -33.803097 -23.245546
v 24.654612 -25.029043 -23.245546
v 20.686899 -33.776009 -23.245546
v 18.555786 -35.640633 129.412766
v 21.808842 -35.640633 129.412766
v 22.409353 -31.362297 134.559662
v 19.291245 -31.362297 134.559662
v 18.555786 -35.640633 119.224281
v 19.291245 -31.362297 124.371162
v 21.808842 -35.640633 119.224281
v 22.409353 -31.362297 124.371162
v 19.806961 4.966706 -71.859261
v 26.205555 28.723242 -54.306168
v 16.243858 22.368795 -77.468712
v 14.465428 24.327927 70.515602
v 18.752899 6.351823 3.049084
v 15.596402 24.877472 79.321884
v 19.523643 7.390779 27.644703
v 18.746763 16.213661 57.167336
v 12.835412 27.563808 75.976334
v 20.184931 18.617599 70.912727
v 25.661860 10.098881 57.167336
v 26.453545 1.382984 27.291819
v 24.865862 2.130672 -4.403314
v 28.617313 -0.248938 -0.447793
v 22.817366 -9.178910 -33.489532
v 0.203586 31.434748 -71.405739
v 14.929177 30.883450 -68.154190
v 29.582796 22.040627 -50.712173
v 26.577423 27.654144 -55.012291
v 24.763796 28.765404 -57.095787
v 16.773472 30.250767 -65.901657
v 24.001156 -9.703733 -13.523631
v 38.540138 -0.081638 -64.602371
v 37.101841 -1.777084 -63.372787
v 28.657700 16.503469 -44.421589
v 14.713340 21.377712 -61.668262
v 14.281183 8.634287 -35.316708
v 18.191845 16.425797 -49.880650
v 29.194342 17.643110 -45.664612
v 15.675838 18.289572 -55.280762
v 28.400963 18.645081 -45.034622
v 28.803444 19.499809 -45.966892
v 44.450588 13.867115 -20.429909
v 44.969738 14.969599 -21.632402
v 44.092579 16.077370 -20.935892
v 44.611729 17.179855 -22.138388
v 22.130972 18.171726 -61.772884
v 25.348408 16.139265 -56.946083
v 27.017410 13.265247 -52.316780
v 26.948875 14.496312 -53.571850
v 17.981569 20.295952 -68.477219
v 0.746287 32.081074 -70.210861
v 0.933303 59.109558 -27.842669
v 12.742790 0.731745 -6.620483
v -3.635068 5.324100 -117.338364
v -0.000000 -32.708290 -90.217461
v -6.617211 28.384121 168.008926
v 0.000000 32.153904 -70.416481
v -1.998842 -3.871364 -120.904137
v -3.367237 -32.365997 -90.077797
v -6.617211 14.050530 168.008926
v -12.271153 26.719225 -80.451584
v 0.000000 5.349121 -120.815895
v 0.000000 28.646049 168.008926
v -0.000000 -1.946885 -125.373810
v 0.000000 13.825974 168.008926
v -0.000000 -39.818436 -79.511604
v -3.547569 -39.168060 -79.511604
v -14.823765 31.051308 -66.678253
v -0.000000 -50.833340 -58.717777
v -3.967130 -49.935226 -59.740112
v 0.000000 59.225960 -27.223640
v 0.000000 -52.561954 -33.581295
v -4.319883 -50.806507 -32.495510
v 0.000000 21.852180 -73.786476
v 0.000000 -52.561954 57.167336
v -4.218780 -51.026276 57.167336
v 0.000000 17.167274 57.167336
v -0.000000 -51.382378 70.334724
v -4.853781 -49.829384 70.292313
v 0.000000 25.105045 70.457191
v 0.000000 -39.002869 78.181686
v -10.056892 -39.826271 77.364357
v 0.000000 25.006620 80.560875
v 0.000000 0.842087 118.769119
v -11.700083 1.524512 116.770470
v -11.314416 29.746084 116.770470
v 0.000000 31.781763 118.769119
v -0.000000 -15.482933 98.570450
v -15.939429 -13.849268 97.947044
v -14.181941 28.291391 97.408119
v 0.000000 31.201967 97.680695
v 0.000000 -52.561954 -7.394549
v -4.415056 -51.036369 -7.394549
v 0.000000 7.101394 0.361633
v 0.000000 -52.561954 26.965553
v -4.382273 -51.030357 26.965553
v 0.000000 8.473550 27.703632
v -28.384462 -1.988527 26.788248
v -27.920610 0.386583 -11.600289
v -19.452148 21.915251 81.191002
v -22.798426 14.688213 71.059258
v -26.674351 5.345537 57.287067
v -29.426680 20.903246 -49.550041
v -22.221146 41.741039 -35.162926
v -33.642620 1.807628 -76.947762
v -24.278893 -0.514603 -59.261745
v -37.612484 -2.491580 -75.357361
v -27.939915 8.566662 -33.565712
v -19.016472 -6.514521 -59.313011
v 0.000000 -29.420578 86.383606
v -18.619028 -21.102226 26.965551
v -18.079454 -21.754436 -7.382509
v -15.483421 -30.061321 77.364357
v -16.071297 -28.493202 70.588524
v -17.609665 -23.398720 57.167336
v -16.411121 -23.726097 -30.403118
v -15.692136 -29.939957 85.933426
v 0.000000 -43.892540 75.078812
v -10.217651 -40.309174 26.965551
v -10.508120 -40.516258 -8.842864
v -9.717731 -40.435444 70.334724
v -9.717731 -40.276535 57.167336
v -10.161247 -40.271000 75.078819
v -7.574402 -37.343861 -30.463316
v -25.327507 3.401477 80.032784
v -7.562527 26.550621 168.008926
v -17.914949 10.873523 97.560242
v -13.203484 14.936916 110.808838
v 0.000000 26.550621 168.008926
v -7.562527 15.622428 168.008926
v -19.716431 -2.314808 97.595016
v -13.203484 5.898514 110.808838
v 0.000000 15.622428 168.008926
v -23.013138 -10.148627 79.707840
v -19.563965 -0.278908 -75.411209
v -13.033869 6.055656 -90.805031
v -18.215599 -13.776639 -56.798981
v -10.728871 -21.702097 -79.017891
v -8.425528 -15.912241 -92.932663
v -10.032331 -30.161587 -58.690224
v 0.000000 -20.160820 -104.519676
v -5.964131 -33.841835 -79.511604
v -5.023932 -28.301796 -90.477440
v -3.173965 -21.083014 -102.723366
v -5.623912 -43.260086 -59.740112
v -4.814554 -50.364128 -46.957157
v -24.011848 -1.730562 72.038544
v -21.928144 -10.954166 71.988136
v -58.198631 25.600351 113.265282
v -90.091469 42.333225 178.261414
v -69.879944 33.108253 134.004837
v -78.799423 40.003296 150.973572
v -90.091469 37.535759 178.261414
v -69.879944 24.708153 134.004837
v -78.799423 30.964895 150.973572
v -58.198631 17.980398 113.265282
v -39.727200 7.302779 86.444366
v -39.674580 3.318997 86.444366
v -26.875330 -3.126654 74.171440
v -32.412754 -3.711927 84.883537
v -25.735716 -8.440596 74.171448
v -32.899239 3.925340 84.883530
v -27.719404 4.116596 103.002251
v -21.267672 14.350832 138.568298
v -27.523176 11.594643 102.894577
v -45.278297 6.431263 98.627121
v -48.732368 22.985649 141.224548
v -48.732368 27.783123 141.224548
v -51.022861 25.339500 134.682938
v -49.454197 22.219845 118.942093
v -33.015236 1.071868 79.355698
v -32.547100 -4.242074 79.355690
v -45.371925 14.068531 98.627121
v -50.896858 17.701246 134.249207
v -49.454197 13.978699 118.942093
v -58.561226 5.690696 -63.038292
v -48.422829 4.304979 -67.033577
v -26.136744 -2.120747 -57.890102
v -47.819206 2.249137 -65.017715
v -34.995110 -1.150133 -78.159866
v -24.428360 -3.697905 -57.314529
v -19.451502 -39.480858 83.656525
v -27.140924 -21.481882 26.965553
v -26.903112 -22.115707 -7.393044
v -23.067221 -30.046150 78.435493
v -23.279438 -29.793583 70.601280
v -26.502285 -23.739885 57.167336
v -28.061234 -22.128542 -33.103844
v -24.504700 -29.939957 85.933426
v -20.028683 -37.571434 26.965551
v -20.909986 -40.516258 -8.842864
v -18.974245 -38.960808 70.410934
v -19.456373 -37.872047 57.167336
v -18.160408 -39.776344 74.903069
v -22.164877 -37.083164 -30.475355
v -17.782711 -36.172600 128.772797
v -18.124062 -29.939957 136.270752
v -23.077053 -37.062977 127.701675
v -24.020683 -29.939957 136.270752
v -6.271707 26.550621 168.008926
v -7.562527 21.086523 168.008926
v -6.271707 15.622428 168.008926
v -6.271707 21.086523 168.008926
v 0.000000 26.550621 159.049484
v 0.000000 15.622428 159.049484
v -6.271707 26.550621 159.049484
v 0.000000 21.086523 159.049484
v -6.271707 15.622428 159.049484
v -6.271707 21.086523 159.049484
v -19.205544 -24.005381 -31.898087
v -13.763233 -35.640656 -31.905607
v -27.363266 -21.789108 -33.400787
v -20.805508 -35.311462 -33.565712
v -20.464521 -25.164486 -23.245546
v -16.288916 -33.803097 -23.245546
v -24.654612 -25.029043 -23.245546
v -20.686897 -33.776009 -23.245546
v -18.555786 -35.640633 129.412766
v -21.808842 -35.640633 129.412766
v -22.409353 -31.362297 134.559662
v -19.291245 -31.362297 134.559662
v -18.555786 -35.640633 119.224281
v -19.291245 -31.362297 124.371162
v -21.808842 -35.640633 119.224281
v -22.409353 -31.362297 124.371162
v -19.806961 4.966706 -71.859261
v -26.205555 28.723242 -54.306168
v -16.243858 22.368795 -77.468712
v -14.465428 24.327927 70.515602
v -18.752899 6.351823 3.049083
v -15.596402 24.877472 79.321884
v -19.523643 7.390779 27.644703
v -18.746763 16.213661 57.167336
v 0.000000 28.418049 76.213188
v -12.835412 27.563808 75.976334
v 0.000000 -0.234364 -6.553572
v -20.184931 18.617599 70.912727
v -25.661860 10.098881 57.167336
v -26.453545 1.382984 27.291819
v -24.865862 2.130672 -4.403314
v -28.617313 -0.248938 -0.447793
v -22.817366 -9.178910 -33.489532
v -0.203586 31.434748 -71.405739
v 0.000000 31.462896 -71.456299
v -14.929177 30.883450 -68.154190
v -29.582796 22.040627 -50.712173
v -26.577423 27.654144 -55.012291
v -24.763796 28.765404 -57.095787
v -16.773472 30.250767 -65.901657
v -24.001156 -9.703733 -13.523631
v 0.000000 8.938882 -39.194782
v -38.540138 -0.081638 -64.602371
v -37.101841 -1.777084 -63.372787
v -28.657700 16.503469 -44.421589
v -14.713340 21.377712 -61.668262
v -14.281180 8.634287 -35.316708
v -18.191845 16.425797 -49.880650
v -29.194342 17.643110 -45.664612
v -15.675838 18.289572 -55.280762
v -28.400963 18.645081 -45.034622
v -28.803444 19.499809 -45.966892
v -44.450588 13.867115 -20.429909
v -44.969738 14.969599 -21.632402
v -44.092579 16.077370 -20.935892
v -44.611729 17.179855 -22.138388
v -22.130972 18.171726 -61.772884
v -25.348408 16.139265 -56.946083
v -27.017410 13.265247 -52.316780
v -26.948875 14.496312 -53.571850
v -17.981569 20.295952 -68.477219
v -0.746287 32.081074 -70.210861
v -0.933303 59.109558 -27.842669
v -12.742790 0.731745 -6.620483
usemtl LightBlue
s 1
f 1 762 1364 411
f 1 411 1215 406
f 1 406 1210 417
f 1 417 1401 415
f 1 415 1583 762
f 2 408 1402 523
f 2 523 1468 661
f 2 661 1326 524
f 2 524 1255 520
f 2 520 1211 408
f 3 431 1408 429
f 3 429 1405 428
f 3 428 1216 430
f 3 430 1218 431
f 4 556 1269 407
f 4 407 1213 552
f 4 552 1270 556
f 5 558 1271 432
f 5 432 1218 430
f 5 430 1216 427
f 5 427 1268 558
f 6 407 1269 555
f 6 555 1268 427
f 6 427 1216 425
f 6 425 1213 407
f 7 428 1405 405
f 7 405 1394 409
f 7 409 1213 425
f 7 425 1216 428
f 8 417 1210 416
f 8 416 1212 419
f 8 419 1403 424
f 8 424 1401 417
f 9 436 1411 433
f 9 433 1408 431
f 9 431 1218 434
f 9 434 1272 554
f 9 554 1219 436
f 10 559 1272 434
f 10 434 1218 432
f 10 432 1271 559
f 11 468 1431 438
f 11 438 1411 436
f 11 436 1219 439
f 11 439 1227 468
f 12 515 1249 469
f 12 469 1227 439
f 12 439 1219 437
f 12 437 1253 515
f 13 445 1417 442
f 13 442 1414 440
f 13 440 1220 443
f 13 443 1221 445
f 14 514 1250 446
f 14 446 1221 443
f 14 443 1220 441
f 14 441 1251 514
f 15 450 1420 506
f 15 506 1457 518
f 15 518 1252 511
f 15 511 1222 450
f 16 513 1252 448
f 16 448 1221 446
f 16 446 1250 513
f 17 462 1427 491
f 17 491 1449 505
f 17 505 1247 498
f 17 498 1225 462
f 19 412 1404 413
f 19 413 1423 455
f 19 455 1223 418
f 19 418 1214 412
f 20 535 1258 414
f 20 414 1214 418
f 20 418 1223 456
f 20 456 1260 535
f 21 421 1402 408
f 21 408 1211 420
f 21 420 1224 457
f 21 457 1426 421
f 22 455 1423 458
f 22 458 1427 462
f 22 462 1225 459
f 22 459 1223 455
f 23 534 1260 456
f 23 456 1223 459
f 23 459 1225 463
f 23 463 1259 534
f 24 461 1426 457
f 24 457 1224 460
f 24 460 1226 464
f 24 464 1430 461
f 25 473 1434 470
f 25 470 1431 468
f 25 468 1227 471
f 25 471 1228 473
f 26 517 1248 474
f 26 474 1228 471
f 26 471 1227 469
f 26 469 1249 517
f 27 440 1414 465
f 27 465 1434 473
f 27 473 1228 466
f 27 466 1220 440
f 28 516 1251 441
f 28 441 1220 466
f 28 466 1228 474
f 28 474 1248 516
f 30 802 1237 484
f 30 484 1236 718
f 30 718 1349 802
f 31 764 1366 806
f 31 806 1388 809
f 31 809 1386 804
f 31 804 1367 764
f 32 489 1238 619
f 32 619 1305 782
f 32 782 1372 616
f 32 616 1307 488
f 32 488 1240 489
f 33 533 1259 463
f 33 463 1225 498
f 33 498 1247 499
f 33 499 1243 519
f 33 519 1261 533
f 34 476 1231 494
f 34 494 1254 561
f 34 561 1273 495
f 34 495 1232 476
f 35 477 1232 495
f 35 495 1273 562
f 35 562 1274 560
f 35 560 1244 501
f 35 501 1245 496
f 35 496 1233 477
f 36 480 1233 496
f 36 496 1245 503
f 36 503 1241 492
f 36 492 1229 480
f 37 481 1229 492
f 37 492 1241 504
f 37 504 1242 769
f 37 769 1370 493
f 37 493 1230 746
f 37 746 1362 481
f 38 505 1449 452
f 38 452 1420 450
f 38 450 1222 453
f 38 453 1247 505
f 44 518 1457 447
f 44 447 1417 445
f 44 445 1221 448
f 44 448 1252 518
f 45 667 1329 664
f 45 664 1328 532
f 45 532 1258 662
f 45 662 1327 667
f 46 460 1224 522
f 46 522 1257 526
f 46 526 1256 521
f 46 521 1226 460
f 47 420 1211 520
f 47 520 1255 527
f 47 527 1257 522
f 47 522 1224 420
f 48 663 1472 423
f 48 423 1404 412
f 48 412 1214 414
f 48 414 1258 532
f 48 532 1328 663
f 49 603 1300 587
f 49 587 1281 573
f 49 573 1279 578
f 49 578 1293 603
f 50 604 1299 586
f 50 586 1275 574
f 50 574 1283 583
f 50 583 1297 604
f 51 605 1297 583
f 51 583 1283 575
f 51 575 1284 585
f 51 585 1298 605
f 52 406 1215 537
f 52 537 1351 721
f 52 721 1263 540
f 52 540 1210 406
f 53 751 1240 538
f 53 538 1264 541
f 53 541 1262 751
f 54 753 1264 538
f 54 538 1240 490
f 54 490 1239 497
f 54 497 1363 753
f 55 544 1263 539
f 55 539 1262 543
f 55 543 1265 546
f 55 546 1266 544
f 56 541 1264 545
f 56 545 1267 547
f 56 547 1265 543
f 56 543 1262 541
f 57 512 1253 548
f 57 548 1267 545
f 57 545 1264 542
f 57 542 1246 512
f 58 551 1266 546
f 58 546 1265 550
f 58 550 1268 555
f 58 555 1269 551
f 59 416 1210 540
f 59 540 1263 544
f 59 544 1266 549
f 59 549 1212 416
f 60 557 1480 422
f 60 422 1403 419
f 60 419 1212 410
f 60 410 1270 557
f 61 547 1267 553
f 61 553 1271 558
f 61 558 1268 550
f 61 550 1265 547
f 62 437 1219 554
f 62 554 1272 559
f 62 559 1271 553
f 62 553 1267 548
f 62 548 1253 437
f 63 606 1298 585
f 63 585 1284 576
f 63 576 1282 530
f 63 530 1292 606
f 64 563 1261 519
f 64 519 1243 500
f 64 500 1244 560
f 64 560 1274 563
f 65 564 1277 568
f 65 568 1280 571
f 65 571 1282 570
f 65 570 1275 564
f 66 565 1278 569
f 66 569 1281 572
f 66 572 1280 568
f 66 568 1277 565
f 67 566 1276 567
f 67 567 1279 573
f 67 573 1281 569
f 67 569 1278 566
f 68 574 1275 570
f 68 570 1282 576
f 68 576 1284 575
f 68 575 1283 574
f 69 607 1301 588
f 69 588 1280 572
f 69 572 1281 587
f 69 587 1300 607
f 70 608 1292 530
f 70 530 1282 571
f 70 571 1280 588
f 70 588 1301 608
f 71 609 1293 578
f 71 578 1279 567
f 71 567 1276 580
f 71 580 1294 609
f 72 610 1294 580
f 72 580 1276 566
f 72 566 1278 581
f 72 581 1295 610
f 73 611 1295 581
f 73 581 1278 565
f 73 565 1277 582
f 73 582 1296 611
f 74 612 1296 582
f 74 582 1277 564
f 74 564 1275 586
f 74 586 1299 612
f 75 561 1254 577
f 75 577 1288 591
f 75 591 1285 529
f 75 529 1273 561
f 76 562 1273 529
f 76 529 1285 592
f 76 592 1287 531
f 76 531 1274 562
f 77 563 1274 531
f 77 531 1287 593
f 77 593 1286 584
f 77 584 1261 563
f 78 533 1261 584
f 78 584 1286 594
f 78 594 1289 579
f 78 579 1259 533
f 79 779 1257 589
f 79 589 1300 603
f 79 603 1293 777
f 79 777 1260 779
f 80 525 1256 590
f 80 590 1291 595
f 80 595 1288 577
f 80 577 1254 525
f 81 591 1288 601
f 81 601 1299 604
f 81 604 1297 599
f 81 599 1285 591
f 82 592 1285 599
f 82 599 1297 605
f 82 605 1298 600
f 82 600 1287 592
f 83 593 1287 600
f 83 600 1298 606
f 83 606 1292 596
f 83 596 1286 593
f 84 594 1286 596
f 84 596 1292 608
f 84 608 1301 602
f 84 602 1289 594
f 85 595 1291 598
f 85 598 1296 612
f 85 612 1299 601
f 85 601 1288 595
f 86 614 1303 780
f 86 780 1305 618
f 86 618 1302 614
f 87 784 1239 620
f 87 620 1307 615
f 87 615 1304 805
f 87 805 1387 623
f 87 623 1234 487
f 87 487 1377 787
f 87 787 1373 784
f 88 624 1306 617
f 88 617 1302 618
f 88 618 1305 619
f 88 619 1238 624
f 89 490 1240 488
f 89 488 1307 620
f 89 620 1239 490
f 90 621 1236 813
f 90 813 1371 781
f 90 781 1303 621
f 91 486 1236 621
f 91 621 1303 614
f 91 614 1302 617
f 91 617 1306 486
f 92 485 1234 623
f 92 623 1387 810
f 92 810 1388 806
f 92 806 1366 485
f 110 664 1329 675
f 110 675 1332 672
f 110 672 1331 676
f 110 676 1328 664
f 111 665 1326 666
f 111 666 1330 673
f 111 673 1332 675
f 111 675 1329 665
f 112 524 1326 665
f 112 665 1329 667
f 112 667 1327 528
f 112 528 1255 524
f 113 674 1546 670
f 113 670 1544 671
f 113 671 1331 672
f 113 672 1332 674
f 114 669 1543 668
f 114 668 1546 674
f 114 674 1332 673
f 114 673 1330 669
f 115 663 1328 676
f 115 676 1331 671
f 115 671 1544 677
f 115 677 1472 663
f 116 661 1468 678
f 116 678 1543 669
f 116 669 1330 666
f 116 666 1326 661
f 117 742 1358 679
f 117 679 1232 477
f 117 477 1233 680
f 117 680 1359 742
f 118 743 1359 680
f 118 680 1233 480
f 118 480 1229 681
f 118 681 1360 743
f 119 682 1361 747
f 119 747 1362 746
f 119 746 1230 682
f 120 411 1364 765
f 120 765 1365 426
f 120 426 1215 411
f 138 410 1212 549
f 138 549 1266 551
f 138 551 1269 556
f 138 556 1270 410
f 139 536 1262 772
f 139 772 1306 624
f 139 624 1238 536
f 147 818 1378 789
f 147 789 1377 487
f 147 487 1234 683
f 147 683 1374 818
f 149 726 1422 454
f 149 454 1430 464
f 149 464 1226 748
f 149 748 1231 749
f 149 749 1354 726
f 153 744 1360 681
f 153 681 1229 481
f 153 481 1362 747
f 153 747 1361 744
f 154 748 1226 521
f 154 521 1256 525
f 154 525 1254 494
f 154 494 1231 748
f 156 749 1231 476
f 156 476 1232 679
f 156 679 1358 750
f 156 750 1354 749
f 157 536 1238 489
f 157 489 1240 751
f 157 751 1262 536
f 158 752 1246 542
f 158 542 1264 753
f 158 753 1363 752
f 159 766 1368 803
f 159 803 1385 808
f 159 808 1389 807
f 159 807 1369 766
f 166 537 1215 426
f 166 426 1365 767
f 166 767 1369 807
f 166 807 1389 811
f 166 811 1351 537
f 167 721 1351 723
f 167 723 1349 768
f 167 768 1262 539
f 167 539 1263 721
f 168 752 1363 770
f 168 770 1370 769
f 168 769 1242 502
f 168 502 1246 752
f 169 497 1239 737
f 169 737 1230 493
f 169 493 1370 770
f 169 770 1363 497
f 170 825 1392 824
f 170 824 1361 682
f 170 682 1230 737
f 170 737 1239 785
f 170 785 1375 825
f 171 768 1349 718
f 171 718 1236 486
f 171 486 1306 772
f 171 772 1262 768
f 172 778 1289 602
f 172 602 1301 607
f 172 607 1300 589
f 172 589 1257 778
f 173 526 1257 774
f 173 774 1291 590
f 173 590 1256 526
f 174 773 1290 597
f 174 597 1294 610
f 174 610 1295 775
f 174 775 1257 773
f 175 774 1257 775
f 175 775 1295 611
f 175 611 1296 598
f 175 598 1291 774
f 176 776 1260 777
f 176 777 1293 609
f 176 609 1294 597
f 176 597 1290 776
f 177 534 1259 579
f 177 579 1289 778
f 177 778 1257 779
f 177 779 1260 534
f 178 773 1257 779
f 178 779 1260 776
f 178 776 1290 773
f 179 527 1255 528
f 179 528 1327 662
f 179 662 1258 535
f 179 535 1260 779
f 179 779 1257 527
f 180 781 1371 783
f 180 783 1372 782
f 180 782 1305 780
f 180 780 1303 781
f 181 613 1304 615
f 181 615 1307 616
f 181 616 1372 783
f 181 783 1371 613
f 182 819 1375 785
f 182 785 1239 784
f 182 784 1373 786
f 182 786 1376 819
f 183 821 1376 792
f 183 792 1379 790
f 183 790 1380 788
f 183 788 1378 821
f 184 792 1376 786
f 184 786 1373 793
f 184 793 1379 792
f 190 763 1367 804
f 190 804 1386 812
f 190 812 1385 803
f 190 803 1368 763
f 191 808 1385 720
f 191 720 1349 761
f 191 761 1389 808
f 192 809 1388 758
f 192 758 1237 719
f 192 719 1386 809
f 193 810 1387 805
f 193 805 1304 622
f 193 622 1237 758
f 193 758 1388 810
f 194 723 1351 811
f 194 811 1389 761
f 194 761 1349 723
f 195 812 1386 719
f 195 719 1237 802
f 195 802 1349 720
f 195 720 1385 812
f 196 484 1237 622
f 196 622 1304 613
f 196 613 1371 813
f 196 813 1236 484
f 198 791 1377 789
f 198 789 1378 788
f 198 788 1380 791
f 199 819 1376 821
f 199 821 1378 818
f 199 818 1374 822
f 199 822 1413 820
f 199 820 1590 817
f 199 817 1375 819
f 201 409 1394 823
f 201 823 1480 557
f 201 557 1270 552
f 201 552 1213 409
f 202 771 1575 745
f 202 745 1392 825
f 202 825 1375 817
f 202 817 1590 771
f 203 831 1582 1149
f 203 1149 1583 415
f 203 415 1401 835
f 203 835 1393 826
f 203 826 1400 831
f 204 523 1402 828
f 204 828 1395 915
f 204 915 1465 918
f 204 918 1539 1055
f 204 1055 1468 523
f 205 429 1408 844
f 205 844 1409 843
f 205 843 1406 842
f 205 842 1405 429
f 206 827 1482 950
f 206 950 1483 946
f 206 946 1398 827
f 207 845 1484 952
f 207 952 1481 841
f 207 841 1406 843
f 207 843 1409 845
f 208 949 1482 827
f 208 827 1398 839
f 208 839 1406 841
f 208 841 1481 949
f 209 405 1405 842
f 209 842 1406 839
f 209 839 1398 829
f 209 829 1394 405
f 210 834 1393 835
f 210 835 1401 424
f 210 424 1403 837
f 210 837 1397 834
f 211 433 1411 847
f 211 847 1412 948
f 211 948 1485 846
f 211 846 1409 844
f 211 844 1408 433
f 212 846 1485 953
f 212 953 1484 845
f 212 845 1409 846
f 213 438 1431 868
f 213 868 1432 849
f 213 849 1412 847
f 213 847 1411 438
f 214 869 1459 910
f 214 910 1463 848
f 214 848 1412 849
f 214 849 1432 869
f 215 442 1417 853
f 215 853 1418 852
f 215 852 1415 850
f 215 850 1414 442
f 216 854 1460 909
f 216 909 1461 851
f 216 851 1415 852
f 216 852 1418 854
f 217 506 1420 856
f 217 856 1421 906
f 217 906 1462 913
f 217 913 1457 506
f 218 855 1462 908
f 218 908 1460 854
f 218 854 1418 855
f 219 491 1427 864
f 219 864 1428 894
f 219 894 1456 901
f 219 901 1449 491
f 221 413 1404 832
f 221 832 1399 836
f 221 836 1424 859
f 221 859 1423 413
f 222 833 1469 929
f 222 929 1471 860
f 222 860 1424 836
f 222 836 1399 833
f 223 828 1402 421
f 223 421 1426 861
f 223 861 1425 838
f 223 838 1395 828
f 224 458 1423 859
f 224 859 1424 862
f 224 862 1428 864
f 224 864 1427 458
f 225 860 1471 928
f 225 928 1470 865
f 225 865 1428 862
f 225 862 1424 860
f 226 861 1426 461
f 226 461 1430 866
f 226 866 1429 863
f 226 863 1425 861
f 227 470 1434 871
f 227 871 1435 870
f 227 870 1432 868
f 227 868 1431 470
f 228 872 1458 912
f 228 912 1459 869
f 228 869 1432 870
f 228 870 1435 872
f 229 465 1414 850
f 229 850 1415 867
f 229 867 1435 871
f 229 871 1434 465
f 230 851 1461 911
f 230 911 1458 872
f 230 872 1435 867
f 230 867 1415 851
f 232 881 1445 1188
f 232 1188 1565 1108
f 232 1108 1444 881
f 233 1192 1585 1151
f 233 1151 1586 1190
f 233 1190 1606 1195
f 233 1195 1608 1192
f 234 1013 1446 886
f 234 886 1448 885
f 234 885 1520 1010
f 234 1010 1592 1168
f 234 1168 1518 1013
f 235 865 1470 927
f 235 927 1473 914
f 235 914 1452 895
f 235 895 1456 894
f 235 894 1428 865
f 236 890 1439 873
f 236 873 1440 891
f 236 891 1486 955
f 236 955 1464 890
f 237 891 1440 874
f 237 874 1441 892
f 237 892 1454 897
f 237 897 1453 954
f 237 954 1487 956
f 237 956 1486 891
f 238 892 1441 877
f 238 877 1437 888
f 238 888 1450 899
f 238 899 1454 892
f 239 888 1437 878
f 239 878 1580 1134
f 239 1134 1438 889
f 239 889 1589 1156
f 239 1156 1451 900
f 239 900 1450 888
f 240 452 1449 901
f 240 901 1456 858
f 240 858 1421 856
f 240 856 1420 452
f 246 447 1457 913
f 246 913 1462 855
f 246 855 1418 853
f 246 853 1417 447
f 247 1058 1542 1061
f 247 1061 1540 1056
f 247 1056 1469 926
f 247 926 1541 1058
f 248 917 1425 863
f 248 863 1429 916
f 248 916 1466 920
f 248 920 1467 917
f 249 915 1395 838
f 249 838 1425 917
f 249 917 1467 921
f 249 921 1465 915
f 250 423 1472 1057
f 250 1057 1541 926
f 250 926 1469 833
f 250 833 1399 832
f 250 832 1404 423
f 251 981 1513 997
f 251 997 1506 972
f 251 972 1492 967
f 251 967 1494 981
f 252 980 1512 998
f 252 998 1510 977
f 252 977 1496 968
f 252 968 1488 980
f 253 977 1510 999
f 253 999 1511 979
f 253 979 1497 969
f 253 969 1496 977
f 254 931 1400 826
f 254 826 1393 934
f 254 934 1475 1111
f 254 1111 1567 931
f 255 932 1448 1139
f 255 1139 1474 935
f 255 935 1476 932
f 256 932 1476 1141
f 256 1141 1581 893
f 256 893 1447 887
f 256 887 1448 932
f 257 933 1475 938
f 257 938 1478 940
f 257 940 1477 937
f 257 937 1474 933
f 258 939 1476 935
f 258 935 1474 937
f 258 937 1477 941
f 258 941 1479 939
f 259 942 1463 907
f 259 907 1455 936
f 259 936 1476 939
f 259 939 1479 942
f 260 940 1478 945
f 260 945 1482 949
f 260 949 1481 944
f 260 944 1477 940
f 261 934 1393 834
f 261 834 1397 943
f 261 943 1478 938
f 261 938 1475 934
f 262 422 1480 951
f 262 951 1483 830
f 262 830 1397 837
f 262 837 1403 422
f 263 947 1479 941
f 263 941 1477 944
f 263 944 1481 952
f 263 952 1484 947
f 264 948 1412 848
f 264 848 1463 942
f 264 942 1479 947
f 264 947 1484 953
f 264 953 1485 948
f 265 979 1511 1000
f 265 1000 1505 924
f 265 924 1495 970
f 265 970 1497 979
f 266 914 1473 957
f 266 957 1487 954
f 266 954 1453 896
f 266 896 1452 914
f 267 962 1490 958
f 267 958 1488 964
f 267 964 1495 965
f 267 965 1493 962
f 268 963 1491 959
f 268 959 1490 962
f 268 962 1493 966
f 268 966 1494 963
f 269 961 1489 960
f 269 960 1491 963
f 269 963 1494 967
f 269 967 1492 961
f 270 964 1488 968
f 270 968 1496 969
f 270 969 1497 970
f 270 970 1495 964
f 271 982 1514 1001
f 271 1001 1513 981
f 271 981 1494 966
f 271 966 1493 982
f 272 924 1505 1002
f 272 1002 1514 982
f 272 982 1493 965
f 272 965 1495 924
f 273 972 1506 1003
f 273 1003 1507 974
f 273 974 1489 961
f 273 961 1492 972
f 274 974 1507 1004
f 274 1004 1508 975
f 274 975 1491 960
f 274 960 1489 974
f 275 975 1508 1005
f 275 1005 1509 976
f 275 976 1490 959
f 275 959 1491 975
f 276 976 1509 1006
f 276 1006 1512 980
f 276 980 1488 958
f 276 958 1490 976
f 277 971 1464 955
f 277 955 1486 923
f 277 923 1498 985
f 277 985 1501 971
f 278 923 1486 956
f 278 956 1487 925
f 278 925 1500 986
f 278 986 1498 923
f 279 925 1487 957
f 279 957 1473 978
f 279 978 1499 987
f 279 987 1500 925
f 280 978 1473 927
f 280 927 1470 973
f 280 973 1502 988
f 280 988 1499 978
f 281 983 1467 1165
f 281 1165 1471 1163
f 281 1163 1506 997
f 281 997 1513 983
f 282 984 1466 919
f 282 919 1464 971
f 282 971 1501 989
f 282 989 1504 984
f 283 995 1501 985
f 283 985 1498 993
f 283 993 1510 998
f 283 998 1512 995
f 284 993 1498 986
f 284 986 1500 994
f 284 994 1511 999
f 284 999 1510 993
f 285 994 1500 987
f 285 987 1499 990
f 285 990 1505 1000
f 285 1000 1511 994
f 286 990 1499 988
f 286 988 1502 996
f 286 996 1514 1002
f 286 1002 1505 990
f 287 992 1504 989
f 287 989 1501 995
f 287 995 1512 1006
f 287 1006 1509 992
f 288 1166 1516 1008
f 288 1008 1515 1012
f 288 1012 1518 1166
f 289 1014 1447 1170
f 289 1170 1593 1173
f 289 1173 1597 884
f 289 884 1442 1017
f 289 1017 1607 1191
f 289 1191 1517 1009
f 289 1009 1520 1014
f 290 1011 1519 1018
f 290 1018 1446 1013
f 290 1013 1518 1012
f 290 1012 1515 1011
f 291 885 1448 887
f 291 887 1447 1014
f 291 1014 1520 885
f 292 1199 1444 1015
f 292 1015 1516 1167
f 292 1167 1591 1199
f 293 1015 1444 883
f 293 883 1519 1011
f 293 1011 1515 1008
f 293 1008 1516 1015
f 294 1017 1442 882
f 294 882 1585 1192
f 294 1192 1608 1196
f 294 1196 1607 1017
f 312 1067 1542 1058
f 312 1058 1541 1068
f 312 1068 1547 1064
f 312 1064 1548 1067
f 313 1060 1539 1059
f 313 1059 1542 1067
f 313 1067 1548 1065
f 313 1065 1545 1060
f 314 1059 1539 918
f 314 918 1465 922
f 314 922 1540 1061
f 314 1061 1542 1059
f 315 670 1546 1066
f 315 1066 1548 1064
f 315 1064 1547 1063
f 315 1063 1544 670
f 316 668 1543 1062
f 316 1062 1545 1065
f 316 1065 1548 1066
f 316 1066 1546 668
f 317 1068 1541 1057
f 317 1057 1472 677
f 317 677 1544 1063
f 317 1063 1547 1068
f 318 678 1468 1055
f 318 1055 1539 1060
f 318 1060 1545 1062
f 318 1062 1543 678
f 319 1069 1576 1130
f 319 1130 1577 1070
f 319 1070 1441 874
f 319 874 1440 1069
f 320 1070 1577 1131
f 320 1131 1578 1071
f 320 1071 1437 877
f 320 877 1441 1070
f 321 1135 1579 1072
f 321 1072 1438 1134
f 321 1134 1580 1135
f 322 1152 1582 831
f 322 831 1400 840
f 322 840 1584 1152
f 340 943 1397 830
f 340 830 1483 950
f 340 950 1482 945
f 340 945 1478 943
f 341 1158 1474 930
f 341 930 1446 1018
f 341 1018 1519 1158
f 349 1175 1598 1204
f 349 1204 1594 1073
f 349 1073 1442 884
f 349 884 1597 1175
f 351 454 1422 1116
f 351 1116 1570 1137
f 351 1137 1439 1136
f 351 1136 1429 866
f 351 866 1430 454
f 355 1071 1578 1132
f 355 1132 1579 1135
f 355 1135 1580 878
f 355 878 1437 1071
f 356 916 1429 1136
f 356 1136 1439 890
f 356 890 1464 919
f 356 919 1466 916
f 358 873 1439 1137
f 358 1137 1570 1138
f 358 1138 1576 1069
f 358 1069 1440 873
f 359 886 1446 930
f 359 930 1474 1139
f 359 1139 1448 886
f 360 936 1455 1140
f 360 1140 1581 1141
f 360 1141 1476 936
f 361 1189 1587 1153
f 361 1153 1588 1193
f 361 1193 1609 1194
f 361 1194 1605 1189
f 368 840 1400 931
f 368 931 1567 1197
f 368 1197 1609 1193
f 368 1193 1588 1154
f 368 1154 1584 840
f 369 1113 1567 1111
f 369 1111 1475 933
f 369 933 1474 1155
f 369 1155 1565 1113
f 370 1157 1581 1140
f 370 1140 1455 898
f 370 898 1451 1156
f 370 1156 1589 1157
f 371 1125 1447 893
f 371 893 1581 1157
f 371 1157 1589 889
f 371 889 1438 1125
f 372 1208 1612 1209
f 372 1209 1595 1171
f 372 1171 1447 1125
f 372 1125 1438 1072
f 372 1072 1579 1208
f 373 1108 1565 1155
f 373 1155 1474 1158
f 373 1158 1519 883
f 373 883 1444 1108
f 374 996 1502 1164
f 374 1164 1467 983
f 374 983 1513 1001
f 374 1001 1514 996
f 375 1160 1467 920
f 375 920 1466 984
f 375 984 1504 1160
f 376 991 1503 1159
f 376 1159 1467 1161
f 376 1161 1508 1004
f 376 1004 1507 991
f 377 1161 1467 1160
f 377 1160 1504 992
f 377 992 1509 1005
f 377 1005 1508 1161
f 378 1163 1471 1162
f 378 1162 1503 991
f 378 991 1507 1003
f 378 1003 1506 1163
f 379 973 1470 928
f 379 928 1471 1165
f 379 1165 1467 1164
f 379 1164 1502 973
f 380 1165 1467 1159
f 380 1159 1503 1162
f 380 1162 1471 1165
f 381 922 1465 921
f 381 921 1467 1165
f 381 1165 1471 929
f 381 929 1469 1056
f 381 1056 1540 922
f 382 1169 1591 1167
f 382 1167 1516 1166
f 382 1166 1518 1168
f 382 1168 1592 1169
f 383 1009 1517 1007
f 383 1007 1591 1169
f 383 1169 1592 1010
f 383 1010 1520 1009
f 384 1171 1595 1205
f 384 1205 1596 1172
f 384 1172 1593 1170
f 384 1170 1447 1171
f 385 1178 1596 1206
f 385 1206 1598 1174
f 385 1174 1600 1176
f 385 1176 1599 1178
f 386 1172 1596 1178
f 386 1178 1599 1179
f 386 1179 1593 1172
f 392 1190 1586 1150
f 392 1150 1587 1189
f 392 1189 1605 1198
f 392 1198 1606 1190
f 393 1110 1605 1194
f 393 1194 1609 1148
f 393 1148 1565 1110
f 394 1145 1608 1195
f 394 1195 1606 1109
f 394 1109 1445 1145
f 395 1191 1607 1196
f 395 1196 1608 1145
f 395 1145 1445 1016
f 395 1016 1517 1191
f 396 1197 1567 1113
f 396 1113 1565 1148
f 396 1148 1609 1197
f 397 1109 1606 1198
f 397 1198 1605 1110
f 397 1110 1565 1188
f 397 1188 1445 1109
f 398 1016 1445 881
f 398 881 1444 1199
f 398 1199 1591 1007
f 398 1007 1517 1016
f 400 1175 1597 1177
f 400 1177 1600 1174
f 400 1174 1598 1175
f 401 1206 1596 1205
f 401 1205 1595 1203
f 401 1203 1590 820
f 401 820 1413 1207
f 401 1207 1594 1204
f 401 1204 1598 1206
f 403 823 1394 829
f 403 829 1398 946
f 403 946 1483 951
f 403 951 1480 823
f 404 1133 1575 771
f 404 771 1590 1203
f 404 1203 1595 1209
f 404 1209 1612 1133
usemtl DarkGrey
f 29 816 1390 814
f 29 814 1396 475
f 29 475 1410 815
f 29 815 1391 816
f 142 444 1419 724
f 142 724 1352 729
f 142 729 1356 728
f 142 728 1416 444
f 143 467 1416 728
f 143 728 1356 730
f 143 730 1355 727
f 143 727 1436 467
f 144 472 1436 727
f 144 727 1355 731
f 144 731 1353 725
f 144 725 1433 472
f 145 449 1573 735
f 145 735 1357 732
f 145 732 1352 724
f 145 724 1419 449
f 146 733 1422 726
f 146 726 1354 734
f 146 734 1357 735
f 146 735 1573 733
f 148 736 1433 725
f 148 725 1353 741
f 148 741 1361 824
f 148 824 1392 745
f 148 745 1575 736
f 150 729 1352 738
f 150 738 1358 742
f 150 742 1359 739
f 150 739 1356 729
f 151 730 1356 739
f 151 739 1359 743
f 151 743 1360 740
f 151 740 1355 730
f 152 731 1355 740
f 152 740 1360 744
f 152 744 1361 741
f 152 741 1353 731
f 155 734 1354 750
f 155 750 1358 738
f 155 738 1352 732
f 155 732 1357 734
f 160 767 1365 757
f 160 757 1217 754
f 160 754 1369 767
f 161 756 1396 755
f 161 755 1364 762
f 161 762 1583 756
f 162 760 1350 759
f 162 759 1367 763
f 162 763 1368 760
f 163 482 1234 485
f 163 485 1366 764
f 163 764 1367 759
f 163 759 1350 482
f 164 755 1396 814
f 164 814 1390 478
f 164 478 1217 757
f 164 757 1365 765
f 164 765 1364 755
f 165 722 1350 760
f 165 760 1368 766
f 165 766 1369 754
f 165 754 1217 722
f 185 798 1379 793
f 185 793 1373 799
f 185 799 1381 797
f 185 797 1383 798
f 186 797 1381 794
f 186 794 1382 796
f 186 796 1384 795
f 186 795 1383 797
f 187 800 1377 791
f 187 791 1380 801
f 187 801 1384 796
f 187 796 1382 800
f 188 801 1380 790
f 188 790 1379 798
f 188 798 1383 795
f 188 795 1384 801
f 189 799 1373 787
f 189 787 1377 800
f 189 800 1382 794
f 189 794 1381 799
f 231 1200 1610 1202
f 231 1202 1611 1201
f 231 1201 1410 475
f 231 475 1396 1200
f 344 1114 1419 444
f 344 444 1416 1118
f 344 1118 1572 1119
f 344 1119 1568 1114
f 345 1118 1416 467
f 345 467 1436 1117
f 345 1117 1571 1120
f 345 1120 1572 1118
f 346 1117 1436 472
f 346 472 1433 1115
f 346 1115 1569 1121
f 346 1121 1571 1117
f 347 1124 1573 449
f 347 449 1419 1114
f 347 1114 1568 1122
f 347 1122 1574 1124
f 348 1116 1422 733
f 348 733 1573 1124
f 348 1124 1574 1123
f 348 1123 1570 1116
f 350 1115 1433 736
f 350 736 1575 1133
f 350 1133 1612 1208
f 350 1208 1579 1129
f 350 1129 1569 1115
f 352 1126 1568 1119
f 352 1119 1572 1127
f 352 1127 1577 1130
f 352 1130 1576 1126
f 353 1127 1572 1120
f 353 1120 1571 1128
f 353 1128 1578 1131
f 353 1131 1577 1127
f 354 1128 1571 1121
f 354 1121 1569 1129
f 354 1129 1579 1132
f 354 1132 1578 1128
f 357 1138 1570 1123
f 357 1123 1574 1122
f 357 1122 1568 1126
f 357 1126 1576 1138
f 362 1144 1584 1154
f 362 1154 1588 1142
f 362 1142 1407 1144
f 363 1143 1396 756
f 363 756 1583 1149
f 363 1149 1582 1143
f 364 1146 1566 1147
f 364 1147 1587 1150
f 364 1150 1586 1146
f 365 882 1442 879
f 365 879 1566 1146
f 365 1146 1586 1151
f 365 1151 1585 882
f 366 1200 1396 1143
f 366 1143 1582 1152
f 366 1152 1584 1144
f 366 1144 1407 875
f 366 875 1610 1200
f 367 1147 1566 1112
f 367 1112 1407 1142
f 367 1142 1588 1153
f 367 1153 1587 1147
f 387 1179 1599 1184
f 387 1184 1603 1183
f 387 1183 1601 1185
f 387 1185 1593 1179
f 388 1180 1601 1183
f 388 1183 1603 1181
f 388 1181 1604 1182
f 388 1182 1602 1180
f 389 1177 1597 1186
f 389 1186 1602 1182
f 389 1182 1604 1187
f 389 1187 1600 1177
f 390 1176 1600 1187
f 390 1187 1604 1181
f 390 1181 1603 1184
f 390 1184 1599 1176
f 391 1173 1593 1185
f 391 1185 1601 1180
f 391 1180 1602 1186
f 391 1186 1597 1173
usemtl Silver
f 18 645 1314 690
f 18 690 1335 689
f 18 689 1333 691
f 18 691 1246 645
f 39 513 1250 451
f 39 451 1318 639
f 39 639 1320 644
f 39 644 1252 513
f 40 514 1251 508
f 40 508 1319 640
f 40 640 1318 451
f 40 451 1250 514
f 41 515 1253 507
f 41 507 1321 641
f 41 641 1317 510
f 41 510 1249 515
f 42 516 1248 509
f 42 509 1316 642
f 42 642 1319 508
f 42 508 1251 516
f 43 517 1249 510
f 43 510 1317 643
f 43 643 1316 509
f 43 509 1248 517
f 93 627 1315 626
f 93 626 1308 625
f 93 625 1311 627
f 94 628 1311 625
f 94 625 1308 637
f 94 637 1320 639
f 94 639 1318 635
f 94 635 1312 628
f 95 629 1312 635
f 95 635 1318 640
f 95 640 1319 636
f 95 636 1313 629
f 96 630 1310 634
f 96 634 1317 641
f 96 641 1321 638
f 96 638 1314 630
f 97 631 1313 636
f 97 636 1319 642
f 97 642 1316 633
f 97 633 1309 631
f 98 632 1309 633
f 98 633 1316 643
f 98 643 1317 634
f 98 634 1310 632
f 99 511 1252 644
f 99 644 1320 637
f 99 637 1308 646
f 99 646 1222 511
f 100 504 1241 647
f 100 647 1309 632
f 100 632 1310 648
f 100 648 1242 504
f 101 503 1245 649
f 101 649 1313 631
f 101 631 1309 647
f 101 647 1241 503
f 102 502 1242 648
f 102 648 1310 630
f 102 630 1314 645
f 102 645 1246 502
f 103 501 1244 650
f 103 650 1312 629
f 103 629 1313 649
f 103 649 1245 501
f 104 500 1243 651
f 104 651 1311 628
f 104 628 1312 650
f 104 650 1244 500
f 105 499 1247 652
f 105 652 1315 627
f 105 627 1311 651
f 105 651 1243 499
f 106 652 1247 657
f 106 657 1323 656
f 106 656 1325 658
f 106 658 1315 652
f 107 646 1308 659
f 107 659 1324 655
f 107 655 1322 660
f 107 660 1222 646
f 108 626 1315 658
f 108 658 1325 654
f 108 654 1324 659
f 108 659 1308 626
f 109 453 1222 660
f 109 660 1322 653
f 109 653 1323 657
f 109 657 1247 453
f 121 689 1335 698
f 121 698 1339 697
f 121 697 1337 699
f 121 699 1333 689
f 122 638 1321 692
f 122 692 1336 688
f 122 688 1335 690
f 122 690 1314 638
f 123 512 1246 691
f 123 691 1333 687
f 123 687 1334 693
f 123 693 1253 512
f 124 507 1253 693
f 124 693 1334 686
f 124 686 1336 692
f 124 692 1321 507
f 125 695 1337 697
f 125 697 1339 696
f 125 696 1340 694
f 125 694 1338 695
f 126 688 1336 700
f 126 700 1340 696
f 126 696 1339 698
f 126 698 1335 688
f 127 687 1333 699
f 127 699 1337 695
f 127 695 1338 701
f 127 701 1334 687
f 128 686 1334 701
f 128 701 1338 694
f 128 694 1340 700
f 128 700 1336 686
f 129 655 1324 705
f 129 705 1342 703
f 129 703 1341 706
f 129 706 1322 655
f 130 654 1325 704
f 130 704 1343 702
f 130 702 1342 705
f 130 705 1324 654
f 131 707 1345 709
f 131 709 1347 708
f 131 708 1348 710
f 131 710 1346 707
f 132 656 1323 714
f 132 714 1344 713
f 132 713 1343 704
f 132 704 1325 656
f 133 653 1322 706
f 133 706 1341 712
f 133 712 1344 714
f 133 714 1323 653
f 134 713 1344 711
f 134 711 1346 710
f 134 710 1348 715
f 134 715 1343 713
f 135 703 1342 716
f 135 716 1347 709
f 135 709 1345 717
f 135 717 1341 703
f 136 702 1343 715
f 136 715 1348 708
f 136 708 1347 716
f 136 716 1342 702
f 137 712 1341 717
f 137 717 1345 707
f 137 707 1346 711
f 137 711 1344 712
f 220 1080 1527 1039
f 220 1039 1455 1081
f 220 1081 1549 1079
f 220 1079 1551 1080
f 241 857 1460 908
f 241 908 1462 1038
f 241 1038 1533 1033
f 241 1033 1531 857
f 242 903 1461 909
f 242 909 1460 857
f 242 857 1531 1034
f 242 1034 1532 903
f 243 902 1463 910
f 243 910 1459 905
f 243 905 1530 1035
f 243 1035 1534 902
f 244 904 1458 911
f 244 911 1461 903
f 244 903 1532 1036
f 244 1036 1529 904
f 245 905 1459 912
f 245 912 1458 904
f 245 904 1529 1037
f 245 1037 1530 905
f 295 1020 1528 1021
f 295 1021 1524 1019
f 295 1019 1521 1020
f 296 1019 1524 1022
f 296 1022 1525 1029
f 296 1029 1531 1033
f 296 1033 1533 1031
f 296 1031 1521 1019
f 297 1029 1525 1023
f 297 1023 1526 1030
f 297 1030 1532 1034
f 297 1034 1531 1029
f 298 1028 1523 1024
f 298 1024 1527 1032
f 298 1032 1534 1035
f 298 1035 1530 1028
f 299 1030 1526 1025
f 299 1025 1522 1027
f 299 1027 1529 1036
f 299 1036 1532 1030
f 300 1027 1522 1026
f 300 1026 1523 1028
f 300 1028 1530 1037
f 300 1037 1529 1027
f 301 1038 1462 906
f 301 906 1421 1040
f 301 1040 1521 1031
f 301 1031 1533 1038
f 302 1041 1450 900
f 302 900 1451 1042
f 302 1042 1523 1026
f 302 1026 1522 1041
f 303 1043 1454 899
f 303 899 1450 1041
f 303 1041 1522 1025
f 303 1025 1526 1043
f 304 1042 1451 898
f 304 898 1455 1039
f 304 1039 1527 1024
f 304 1024 1523 1042
f 305 1044 1453 897
f 305 897 1454 1043
f 305 1043 1526 1023
f 305 1023 1525 1044
f 306 1045 1452 896
f 306 896 1453 1044
f 306 1044 1525 1022
f 306 1022 1524 1045
f 307 1046 1456 895
f 307 895 1452 1045
f 307 1045 1524 1021
f 307 1021 1528 1046
f 308 1051 1456 1046
f 308 1046 1528 1052
f 308 1052 1538 1050
f 308 1050 1536 1051
f 309 1053 1521 1040
f 309 1040 1421 1054
f 309 1054 1535 1049
f 309 1049 1537 1053
f 310 1052 1528 1020
f 310 1020 1521 1053
f 310 1053 1537 1048
f 310 1048 1538 1052
f 311 1054 1421 858
f 311 858 1456 1051
f 311 1051 1536 1047
f 311 1047 1535 1054
f 323 1088 1551 1079
f 323 1079 1549 1089
f 323 1089 1553 1087
f 323 1087 1555 1088
f 324 1082 1534 1032
f 324 1032 1527 1080
f 324 1080 1551 1078
f 324 1078 1552 1082
f 325 1081 1455 907
f 325 907 1463 1083
f 325 1083 1550 1077
f 325 1077 1549 1081
f 326 1083 1463 902
f 326 902 1534 1082
f 326 1082 1552 1076
f 326 1076 1550 1083
f 327 1087 1553 1085
f 327 1085 1554 1084
f 327 1084 1556 1086
f 327 1086 1555 1087
f 328 1090 1552 1078
f 328 1078 1551 1088
f 328 1088 1555 1086
f 328 1086 1556 1090
f 329 1089 1549 1077
f 329 1077 1550 1091
f 329 1091 1554 1085
f 329 1085 1553 1089
f 330 1091 1550 1076
f 330 1076 1552 1090
f 330 1090 1556 1084
f 330 1084 1554 1091
f 331 1095 1537 1049
f 331 1049 1535 1096
f 331 1096 1557 1093
f 331 1093 1558 1095
f 332 1094 1538 1048
f 332 1048 1537 1095
f 332 1095 1558 1092
f 332 1092 1559 1094
f 333 1099 1561 1097
f 333 1097 1562 1100
f 333 1100 1564 1098
f 333 1098 1563 1099
f 334 1104 1536 1050
f 334 1050 1538 1094
f 334 1094 1559 1103
f 334 1103 1560 1104
f 335 1096 1535 1047
f 335 1047 1536 1104
f 335 1104 1560 1102
f 335 1102 1557 1096
f 336 1101 1560 1103
f 336 1103 1559 1105
f 336 1105 1564 1100
f 336 1100 1562 1101
f 337 1106 1558 1093
f 337 1093 1557 1107
f 337 1107 1561 1099
f 337 1099 1563 1106
f 338 1105 1559 1092
f 338 1092 1558 1106
f 338 1106 1563 1098
f 338 1098 1564 1105
f 339 1107 1557 1102
f 339 1102 1560 1101
f 339 1101 1562 1097
f 339 1097 1561 1107
usemtl Glass
f 140 483 1235 479
f 140 479 1234 482
f 140 482 1350 483
f 141 685 1235 483
f 141 483 1350 722
f 141 722 1217 685
f 197 685 1217 478
f 197 478 1390 816
f 197 816 1391 684
f 197 684 1235 685
f 200 435 1413 822
f 200 822 1374 683
f 200 683 1234 479
f 200 479 1235 684
f 200 684 1391 815
f 200 815 1410 435
f 342 876 1443 880
f 342 880 1566 879
f 342 879 1442 876
f 343 880 1443 1075
f 343 1075 1407 1112
f 343 1112 1566 880
f 399 875 1407 1075
f 399 1075 1443 1074
f 399 1074 1611 1202
f 399 1202 1610 875
f 402 1207 1413 435
f 402 435 1410 1201
f 402 1201 1611 1074
f 402 1074 1443 876
f 402 876 1442 1073
f 402 1073 1594 1207
